Iteration;Relative energy - Lvl3;Relative energy - Lvl2;Relative energy - Lvl1;Relative energy - Lvl0
0;32.0686554091928;31.0413142039922;13.8207959222906;4.97887863199229
1;32.0302160441902;31.0413142039922;13.8207959222906;4.97887863199229
2;32.0302160441902;30.7860012833048;13.8207959222906;4.97887863199229
3;32.0302160441902;30.7860012833048;13.8207959222906;4.9592163406332
4;32.0302160441902;30.7860012833048;13.8207959222906;4.7818939929872
5;31.9200602578475;30.0248659404791;13.8207959222906;4.7818939929872
6;31.9200602578475;30.0248659404791;13.8207959222906;4.7818939929872
7;31.9200602578475;30.0248659404791;13.8207959222906;4.7818939929872
8;31.9200602578475;30.0248659404791;13.8207959222906;4.7818939929872
9;31.9200602578475;30.0248659404791;13.8207959222906;4.7818939929872
10;31.5235426480485;30.0248659404791;;4.7818939929872
11;31.5235426480485;29.8934427797502;;4.7818939929872
12;31.5235426480485;29.8934427797502;;4.7818939929872
13;31.5235426480485;29.0181940958619;;4.7818939929872
14;31.5235426480485;28.9445727306092
15;31.5235426480485;28.9445727306092
16;31.5235426480485;27.1185042564919
17;31.5235426480485;27.1185042564919
18;31.5235426480485;26.8569609930164
19;31.5235426480485;26.1655783010779
20;29.9920220256872;26.1655783010779
21;29.9920220256872;25.2324170902744
22;29.9920220256872;25.2324170902744
23;29.9920220256872;24.9143802057815
24;29.9920220256872;24.9143802057815
25;29.9920220256872;24.9143802057815
26;29.9920220256872;24.8166474001715
27;29.9920220256872;24.8166474001715
28;29.9920220256872;24.8166474001715
29;29.9920220256872;24.8166474001715
30;;24.8166474001715
31;;24.8166474001715
32;;24.8166474001715
33;;24.8166474001715
34;;24.8166474001715
35;;23.9515540809454
36;;23.9515540809454
37;;23.9515540809454
38;;23.9515540809454
39;;23.6991967456527
40;;23.6991967456527
41;;23.6991967456527
42;;23.6991967456527
43;;23.6991967456527
44;;23.6991967456527
45;;23.6991967456527
46;;23.6991967456527
47;;23.6568753824969
48;;23.1824077191479
49;;23.1824077191479
