00000 1465215512.5807309151 0.9810526371
00001 1465215512.6800112724 0.9810526371
00002 1465215512.7798457146 0.9810526371
00003 1465215512.8802950382 0.9810526371
00004 1465215512.9820864201 0.9810526371
00005 1465215513.0809979439 0.9740350842
00006 1465215513.1821644306 0.9740350842
00007 1465215513.2794275284 0.9740350842
00008 1465215513.3793845177 0.9740350842
00009 1465215513.4828462601 0.9740350842
00010 1465215513.5794031620 0.9588772058
00011 1465215513.6807403564 0.9588772058
00012 1465215513.7794179916 0.9588772058
00013 1465215513.8794326782 0.9588772058
00014 1465215513.9809868336 0.9588772058
00015 1465215514.0808780193 0.9417544007
00016 1465215514.1796836853 0.9417544007
00017 1465215514.2794013023 0.9417544007
00018 1465215514.3794567585 0.9417544007
00019 1465215514.4822089672 0.9417544007
00020 1465215514.5792703629 0.9235087633
00021 1465215514.6807708740 0.9235087633
00022 1465215514.7797369957 0.9235087633
00023 1465215514.8800961971 0.9235087633
00024 1465215514.9842531681 0.9235087633
00025 1465215515.0792512894 0.9103158116
00026 1465215515.1812977791 0.9103158116
00027 1465215515.2792544365 0.9103158116
00028 1465215515.3794269562 0.9103158116
00029 1465215515.4792814255 0.9103158116
00030 1465215515.5819942951 0.9103158116
00031 1465215515.6809732914 0.9103158116
00032 1465215515.7794642448 0.9103158116
00033 1465215515.8807463646 0.9103158116
00034 1465215515.9814176559 0.9103158116
00035 1465215516.0811603069 0.9232280850
00036 1465215516.1795132160 0.9232280850
00037 1465215516.2810289860 0.9232280850
00038 1465215516.3796300888 0.9232280850
00039 1465215516.4812781811 0.9232280850
00040 1465215516.5792033672 0.9529824853
00041 1465215516.6792221069 0.9529824853
00042 1465215516.7793858051 0.9529824853
00043 1465215516.8796761036 0.9529824853
00044 1465215516.9810636044 0.9529824853
00045 1465215517.0792686939 1.0037894249
00046 1465215517.1795716286 1.0037894249
00047 1465215517.2795429230 1.0037894249
00048 1465215517.3791987896 1.0037894249
00049 1465215517.4816775322 1.0037894249
00050 1465215517.5804715157 1.0475789309
00051 1465215517.6791601181 1.0475789309
00052 1465215517.7791833878 1.0475789309
00053 1465215517.8791594505 1.0475789309
00054 1465215517.9838540554 1.0475789309
00055 1465215518.0808517933 1.0734034777
00056 1465215518.1794726849 1.0734034777
00057 1465215518.2791423798 1.0734034777
00058 1465215518.3804080486 1.0734034777
00059 1465215518.4796912670 1.0734034777
00060 1465215518.5790562630 1.0734034777
00061 1465215518.6791152954 1.0734034777
00062 1465215518.7822968960 1.0734034777
00063 1465215518.8802864552 1.0734034777
00064 1465215518.9815585613 1.0734034777
00065 1465215519.0797803402 1.0711579323
00066 1465215519.1792061329 1.0711579323
00067 1465215519.2791242599 1.0711579323
00068 1465215519.3791558743 1.0711579323
00069 1465215519.4817304611 1.0711579323
00070 1465215519.5805146694 1.0481404066
00071 1465215519.6794035435 1.0481404066
00072 1465215519.7790694237 1.0481404066
00073 1465215519.8790450096 1.0481404066
00074 1465215519.9810283184 1.0481404066
00075 1465215520.0797729492 1.0068771839
00076 1465215520.1794061661 1.0068771839
00077 1465215520.2791404724 1.0068771839
00078 1465215520.3790991306 1.0068771839
00079 1465215520.4836101532 1.0068771839
00080 1465215520.5794141293 0.9687017798
00081 1465215520.6791496277 0.9687017798
00082 1465215520.7791159153 0.9687017798
00083 1465215520.8790085316 0.9687017798
00084 1465215520.9819235802 0.9687017798
00085 1465215521.0790452957 0.9375438690
00086 1465215521.1789996624 0.9375438690
00087 1465215521.2817327976 0.9375438690
00088 1465215521.3795218468 0.9375438690
00089 1465215521.4807882309 0.9375438690
00090 1465215521.5788855553 0.9173333049
00091 1465215521.6806213856 0.9173333049
00092 1465215521.7798645496 0.9173333049
00093 1465215521.8789880276 0.9173333049
00094 1465215521.9816708565 0.9173333049
00095 1465215522.0789368153 0.9150876999
00096 1465215522.1806583405 0.9150876999
00097 1465215522.2792813778 0.9150876999
00098 1465215522.3789145947 0.9150876999
00099 1465215522.4854354858 0.9150876999
00100 1465215522.5806005001 0.9420350790
00101 1465215522.6817986965 0.9420350790
00102 1465215522.7790544033 0.9420350790
00103 1465215522.8791525364 0.9420350790
00104 1465215522.9803667068 0.9420350790
00105 1465215523.0790510178 0.9768421054
00106 1465215523.1787779331 0.9768421054
00107 1465215523.2819609642 0.9768421054
00108 1465215523.3788332939 0.9768421054
00109 1465215523.4812343121 0.9768421054
00110 1465215523.5787334442 1.0147368908
00111 1465215523.6787793636 1.0147368908
00112 1465215523.7817018032 1.0147368908
00113 1465215523.8788006306 1.0147368908
00114 1465215523.9839067459 1.0147368908
00115 1465215524.0788731575 1.0545965433
00116 1465215524.1812164783 1.0545965433
00117 1465215524.2788491249 1.0545965433
00118 1465215524.3787891865 1.0545965433
00119 1465215524.4807951450 1.0545965433
00120 1465215524.5788900852 1.0515087843
00121 1465215524.6822121143 1.0515087843
00122 1465215524.7804198265 1.0515087843
00123 1465215524.8821561337 1.0515087843
00124 1465215524.9819366932 1.0515087843
00125 1465215525.0788242817 1.0304561853
00126 1465215525.1802861691 1.0304561853
00127 1465215525.2816908360 1.0304561853
00128 1465215525.3787698746 1.0304561853
00129 1465215525.4821743965 1.0304561853
00130 1465215525.5788605213 1.0023859739
00131 1465215525.6787660122 1.0023859739
00132 1465215525.7790312767 1.0023859739
00133 1465215525.8791320324 1.0023859739
00134 1465215525.9808509350 1.0023859739
00135 1465215526.0798249245 0.9712280631
00136 1465215526.1787130833 0.9712280631
00137 1465215526.2786948681 0.9712280631
00138 1465215526.3817439079 0.9712280631
00139 1465215526.4824557304 0.9712280631
00140 1465215526.5816705227 0.9482105374
00141 1465215526.6786639690 0.9482105374
00142 1465215526.7786936760 0.9482105374
00143 1465215526.8787117004 0.9482105374
00144 1465215526.9807367325 0.9482105374
00145 1465215527.0786814690 0.9260351062
00146 1465215527.1790597439 0.9260351062
00147 1465215527.2787282467 0.9260351062
00148 1465215527.3809132576 0.9260351062
00149 1465215527.4801163673 0.9260351062
00150 1465215527.5785796642 0.9260351062
00151 1465215527.6791779995 0.9260351062
00152 1465215527.7793221474 0.9260351062
00153 1465215527.8787589073 0.9260351062
00154 1465215527.9854221344 0.9260351062
00155 1465215528.0794532299 0.9089123011
00156 1465215528.1787557602 0.9089123011
00157 1465215528.2787237167 0.9089123011
00158 1465215528.3795847893 0.9089123011
00159 1465215528.4808650017 0.9089123011
00160 1465215528.5786695480 0.8797193170
00161 1465215528.6796975136 0.8797193170
00162 1465215528.7788493633 0.8797193170
00163 1465215528.8792002201 0.8797193170
00164 1465215528.9817824364 0.8797193170
00165 1465215529.0784599781 0.8637192845
00166 1465215529.1787259579 0.8637192845
00167 1465215529.2786369324 0.8637192845
00168 1465215529.3786621094 0.8637192845
00169 1465215529.4810802937 0.8637192845
00170 1465215529.5785868168 0.8465964794
00171 1465215529.6786096096 0.8465964794
00172 1465215529.7785842419 0.8465964794
00173 1465215529.8786034584 0.8465964794
00174 1465215529.9807949066 0.8465964794
00175 1465215530.0800130367 0.8903859854
00176 1465215530.1791121960 0.8903859854
00177 1465215530.2788152695 0.8903859854
00178 1465215530.3786334991 0.8903859854
00179 1465215530.4804167747 0.8903859854
00180 1465215530.5816733837 0.9521403313
00181 1465215530.6797966957 0.9521403313
00182 1465215530.7794096470 0.9521403313
00183 1465215530.8785481453 0.9521403313
00184 1465215530.9810342789 0.9521403313
00185 1465215531.0784921646 1.0060350895
00186 1465215531.1785137653 1.0060350895
00187 1465215531.2786734104 1.0060350895
00188 1465215531.3784451485 1.0060350895
00189 1465215531.4829106331 1.0060350895
00190 1465215531.5790355206 1.0689122677
00191 1465215531.6785373688 1.0689122677
00192 1465215531.7798764706 1.0689122677
00193 1465215531.8787581921 1.0689122677
00194 1465215531.9787423611 1.0689122677
00195 1465215532.0783712864 1.0689122677
00196 1465215532.1784231663 1.0689122677
00197 1465215532.2801451683 1.0689122677
00198 1465215532.3803141117 1.0689122677
00199 1465215532.4816319942 1.0689122677
00200 1465215532.5797116756 1.0638597012
00201 1465215532.6785106659 1.0638597012
00202 1465215532.7786591053 1.0638597012
00203 1465215532.8786396980 1.0638597012
00204 1465215532.9810998440 1.0638597012
00205 1465215533.0786378384 1.0846315622
00206 1465215533.1786189079 1.0846315622
00207 1465215533.2785828114 1.0846315622
00208 1465215533.3786590099 1.0846315622
00209 1465215533.4805676937 1.0846315622
00210 1465215533.5808870792 1.0843508244
00211 1465215533.6794764996 1.0843508244
00212 1465215533.7783231735 1.0843508244
00213 1465215533.8783123493 1.0843508244
00214 1465215533.9823279381 1.0843508244
00215 1465215534.0784754753 1.0742455721
00216 1465215534.1783773899 1.0742455721
00217 1465215534.2783377171 1.0742455721
00218 1465215534.3783268929 1.0742455721
00219 1465215534.4821927547 1.0742455721
00220 1465215534.5785403252 1.0512280464
00221 1465215534.6787388325 1.0512280464
00222 1465215534.7786161900 1.0512280464
00223 1465215534.8785014153 1.0512280464
00224 1465215534.9823858738 1.0512280464
00225 1465215535.0783538818 1.0270876884
00226 1465215535.1784017086 1.0270876884
00227 1465215535.2783637047 1.0270876884
00228 1465215535.3802266121 1.0270876884
00229 1465215535.4812574387 1.0270876884
00230 1465215535.5797030926 1.0150175095
00231 1465215535.6783254147 1.0150175095
00232 1465215535.7789425850 1.0150175095
00233 1465215535.8785047531 1.0150175095
00234 1465215535.9812753201 1.0150175095
00235 1465215536.0782630444 0.9998596311
00236 1465215536.1791672707 0.9998596311
00237 1465215536.2812762260 0.9998596311
00238 1465215536.3782835007 0.9998596311
00239 1465215536.4789798260 0.9998596311
00240 1465215536.5789732933 0.9998596311
00241 1465215536.6794385910 0.9998596311
00242 1465215536.7781991959 0.9998596311
00243 1465215536.8797011375 0.9998596311
00244 1465215536.9807910919 0.9998596311
00245 1465215537.0782687664 0.9827368259
00246 1465215537.1781249046 0.9827368259
00247 1465215537.2782874107 0.9827368259
00248 1465215537.3782637119 0.9827368259
00249 1465215537.4809346199 0.9827368259
00250 1465215537.5782475471 0.9695438743
00251 1465215537.6795935631 0.9695438743
00252 1465215537.7784452438 0.9695438743
00253 1465215537.8784503937 0.9695438743
00254 1465215537.9782352448 0.9695438743
00255 1465215538.0781357288 0.9695438743
00256 1465215538.1783745289 0.9695438743
00257 1465215538.2784256935 0.9695438743
00258 1465215538.3781106472 0.9695438743
00259 1465215538.4783296585 0.9695438743
00260 1465215538.5781881809 0.9695438743
00261 1465215538.6783230305 0.9695438743
00262 1465215538.7793190479 0.9695438743
00263 1465215538.8797173500 0.9695438743
00264 1465215538.9784386158 0.9695438743
00265 1465215539.0780584812 0.9695438743
00266 1465215539.1780447960 0.9695438743
00267 1465215539.2780568600 0.9695438743
00268 1465215539.3794865608 0.9695438743
00269 1465215539.4783394337 0.9695438743
00270 1465215539.5780501366 0.9695438743
00271 1465215539.6781775951 0.9695438743
00272 1465215539.7780871391 0.9695438743
00273 1465215539.8780355453 0.9695438743
00274 1465215539.9780328274 0.9695438743
00275 1465215540.0781986713 0.9695438743
00276 1465215540.1809446812 0.9695438743
00277 1465215540.2787308693 0.9695438743
00278 1465215540.3779871464 0.9695438743
00279 1465215540.4811658859 0.9695438743
00280 1465215540.5779335499 0.9493333101
00281 1465215540.6780982018 0.9493333101
00282 1465215540.7846162319 0.9493333101
00283 1465215540.8793282509 0.9493333101
00284 1465215540.9803912640 0.9493333101
00285 1465215541.0798952579 0.9240701795
00286 1465215541.1784129143 0.9240701795
00287 1465215541.2777736187 0.9240701795
00288 1465215541.3781633377 0.9240701795
00289 1465215541.4797585011 0.9240701795
00290 1465215541.5779995918 0.8909473419
00291 1465215541.6811311245 0.8909473419
00292 1465215541.7786500454 0.8909473419
00293 1465215541.8781654835 0.8909473419
00294 1465215541.9835758209 0.8909473419
00295 1465215542.0781443119 0.8637192845
00296 1465215542.1777901649 0.8637192845
00297 1465215542.2791373730 0.8637192845
00298 1465215542.3795444965 0.8637192845
00299 1465215542.4802436829 0.8637192845
00300 1465215542.5808577538 0.8395789266
00301 1465215542.6788117886 0.8395789266
00302 1465215542.7778701782 0.8395789266
00303 1465215542.8790349960 0.8395789266
00304 1465215542.9806957245 0.8395789266
00305 1465215543.0779213905 0.8513684273
00306 1465215543.1793689728 0.8513684273
00307 1465215543.2782516479 0.8513684273
00308 1465215543.3781480789 0.8513684273
00309 1465215543.4780683517 0.8513684273
00310 1465215543.5778307915 0.8513684273
00311 1465215543.6778299809 0.8513684273
00312 1465215543.7780351639 0.8513684273
00313 1465215543.8779399395 0.8513684273
00314 1465215543.9796669483 0.8513684273
00315 1465215544.0804648399 0.8342456222
00316 1465215544.1784391403 0.8342456222
00317 1465215544.2777228355 0.8342456222
00318 1465215544.3777432442 0.8342456222
00319 1465215544.4804549217 0.8342456222
00320 1465215544.5777251720 0.8210526109
00321 1465215544.6806702614 0.8210526109
00322 1465215544.7777307034 0.8210526109
00323 1465215544.8777320385 0.8210526109
00324 1465215544.9807202816 0.8210526109
00325 1465215545.0778245926 0.8117894530
00326 1465215545.1778347492 0.8117894530
00327 1465215545.2792487144 0.8117894530
00328 1465215545.3780231476 0.8117894530
00329 1465215545.4797854424 0.8117894530
00330 1465215545.5776820183 0.8297544122
00331 1465215545.6792979240 0.8297544122
00332 1465215545.7788331509 0.8297544122
00333 1465215545.8776822090 0.8297544122
00334 1465215545.9800422192 0.8297544122
00335 1465215546.0796923637 0.8755087852
00336 1465215546.1777510643 0.8755087852
00337 1465215546.2792646885 0.8755087852
00338 1465215546.3784646988 0.8755087852
00339 1465215546.4800028801 0.8755087852
00340 1465215546.5784347057 0.9454035163
00341 1465215546.6785542965 0.9454035163
00342 1465215546.7777519226 0.9454035163
00343 1465215546.8779337406 0.9454035163
00344 1465215546.9796671867 0.9454035163
00345 1465215547.0776500702 0.9653333426
00346 1465215547.1777300835 0.9653333426
00347 1465215547.2777419090 0.9653333426
00348 1465215547.3776602745 0.9653333426
00349 1465215547.4777240753 0.9653333426
00350 1465215547.5776679516 0.9653333426
00351 1465215547.6807465553 0.9653333426
00352 1465215547.7776589394 0.9653333426
00353 1465215547.8776426315 0.9653333426
00354 1465215547.9776439667 0.9653333426
00355 1465215548.0776848793 0.9653333426
00356 1465215548.1776468754 0.9653333426
00357 1465215548.2793159485 0.9653333426
00358 1465215548.3779306412 0.9653333426
00359 1465215548.4795858860 0.9653333426
00360 1465215548.5791881084 1.0110877752
00361 1465215548.6779310703 1.0110877752
00362 1465215548.7777500153 1.0110877752
00363 1465215548.8777613640 1.0110877752
00364 1465215548.9776012897 1.0110877752
00365 1465215549.0776636600 1.0110877752
00366 1465215549.1790847778 1.0110877752
00367 1465215549.2778768539 1.0110877752
00368 1465215549.3780779839 1.0110877752
00369 1465215549.4798693657 1.0110877752
00370 1465215549.5776014328 0.9939649105
00371 1465215549.6775329113 0.9939649105
00372 1465215549.7774879932 0.9939649105
00373 1465215549.8775010109 0.9939649105
00374 1465215549.9795637131 0.9939649105
00375 1465215550.0774443150 0.9847017527
00376 1465215550.1790814400 0.9847017527
00377 1465215550.2777869701 0.9847017527
00378 1465215550.3773982525 0.9847017527
00379 1465215550.4800121784 0.9847017527
00380 1465215550.5774486065 0.9765614271
00381 1465215550.6823637486 0.9765614271
00382 1465215550.7774562836 0.9765614271
00383 1465215550.8793399334 0.9765614271
00384 1465215550.9825198650 0.9765614271
00385 1465215551.0774044991 0.9765614271
00386 1465215551.1800274849 0.9765614271
00387 1465215551.2825260162 0.9765614271
00388 1465215551.3774311543 0.9765614271
00389 1465215551.4805014133 0.9765614271
00390 1465215551.5774762630 0.9442806840
00391 1465215551.6775763035 0.9442806840
00392 1465215551.7803034782 0.9442806840
00393 1465215551.8776710033 0.9442806840
00394 1465215551.9796473980 0.9442806840
00395 1465215552.0775549412 0.9170526266
00396 1465215552.1773853302 0.9170526266
00397 1465215552.2774279118 0.9170526266
00398 1465215552.3773994446 0.9170526266
00399 1465215552.4797441959 0.9170526266
00400 1465215552.5848393440 0.8917894959
00401 1465215552.6783983707 0.8917894959
00402 1465215552.7775053978 0.8917894959
00403 1465215552.8777093887 0.8917894959
00404 1465215552.9790534973 0.8917894959
00405 1465215553.0775687695 0.8665263057
00406 1465215553.1777529716 0.8665263057
00407 1465215553.2776865959 0.8665263057
00408 1465215553.3774018288 0.8665263057
00409 1465215553.4794888496 0.8665263057
00410 1465215553.5786442757 0.8494035006
00411 1465215553.6773107052 0.8494035006
00412 1465215553.7772171497 0.8494035006
00413 1465215553.8773190975 0.8494035006
00414 1465215553.9795203209 0.8494035006
00415 1465215554.0772857666 0.8353683949
00416 1465215554.1787164211 0.8353683949
00417 1465215554.2798123360 0.8353683949
00418 1465215554.3772392273 0.8353683949
00419 1465215554.4792363644 0.8353683949
00420 1465215554.5772490501 0.8221754432
00421 1465215554.6772017479 0.8221754432
00422 1465215554.7773067951 0.8221754432
00423 1465215554.8772256374 0.8221754432
00424 1465215554.9790604115 0.8221754432
00425 1465215555.0777399540 0.8221754432
00426 1465215555.1771540642 0.8221754432
00427 1465215555.2771887779 0.8221754432
00428 1465215555.3801968098 0.8221754432
00429 1465215555.4799463749 0.8221754432
00430 1465215555.5772588253 0.8429473639
00431 1465215555.6788012981 0.8429473639
00432 1465215555.7771005630 0.8429473639
00433 1465215555.8772089481 0.8429473639
00434 1465215555.9790961742 0.8429473639
00435 1465215556.0797910690 0.8718596697
00436 1465215556.1772637367 0.8718596697
00437 1465215556.2782766819 0.8718596697
00438 1465215556.3809883595 0.8718596697
00439 1465215556.4821791649 0.8718596697
00440 1465215556.5799639225 0.9007719159
00441 1465215556.6770246029 0.9007719159
00442 1465215556.7787189484 0.9007719159
00443 1465215556.8771464825 0.9007719159
00444 1465215556.9771733284 0.9007719159
00445 1465215557.0773472786 0.9007719159
00446 1465215557.1771874428 0.9007719159
00447 1465215557.2770996094 0.9007719159
00448 1465215557.3770878315 0.9007719159
00449 1465215557.4773564339 0.9007719159
00450 1465215557.5769510269 0.9007719159
00451 1465215557.6804752350 0.9007719159
00452 1465215557.7773461342 0.9007719159
00453 1465215557.8769826889 0.9007719159
00454 1465215557.9831919670 0.9007719159
00455 1465215558.0774281025 0.9215438366
00456 1465215558.1769852638 0.9215438366
00457 1465215558.2804987431 0.9215438366
00458 1465215558.3773314953 0.9215438366
00459 1465215558.4791233540 0.9215438366
00460 1465215558.5794308186 0.9535438418
00461 1465215558.6776070595 0.9535438418
00462 1465215558.7769653797 0.9535438418
00463 1465215558.8770232201 0.9535438418
00464 1465215558.9837489128 0.9535438418
00465 1465215559.0770797729 0.9785262942
00466 1465215559.1772587299 0.9785262942
00467 1465215559.2783603668 0.9785262942
00468 1465215559.3771815300 0.9785262942
00469 1465215559.4770231247 0.9785262942
00470 1465215559.5782823563 0.9785262942
00471 1465215559.6788895130 0.9785262942
00472 1465215559.7770824432 0.9785262942
00473 1465215559.8769388199 0.9785262942
00474 1465215559.9769878387 0.9785262942
00475 1465215560.0769276619 0.9785262942
00476 1465215560.1769456863 0.9785262942
00477 1465215560.2769320011 0.9785262942
00478 1465215560.3785865307 0.9785262942
00479 1465215560.4803299904 0.9785262942
00480 1465215560.5788993835 0.9672982693
00481 1465215560.6769378185 0.9672982693
00482 1465215560.7769107819 0.9672982693
00483 1465215560.8785767555 0.9672982693
00484 1465215560.9806449413 0.9672982693
00485 1465215561.0769557953 0.9490526319
00486 1465215561.1799569130 0.9490526319
00487 1465215561.2769691944 0.9490526319
00488 1465215561.3768439293 0.9490526319
00489 1465215561.4822278023 0.9490526319
00490 1465215561.5769443512 0.9237895012
00491 1465215561.6783032417 0.9237895012
00492 1465215561.7771918774 0.9237895012
00493 1465215561.8772094250 0.9237895012
00494 1465215561.9770381451 0.9237895012
00495 1465215562.0798640251 0.9237895012
00496 1465215562.1768729687 0.9237895012
00497 1465215562.2777314186 0.9237895012
00498 1465215562.3766946793 0.9237895012
00499 1465215562.4768040180 0.9237895012
00500 1465215562.5768771172 0.9237895012
00501 1465215562.6783065796 0.9237895012
00502 1465215562.7772629261 0.9237895012
00503 1465215562.8768291473 0.9237895012
00504 1465215562.9800646305 0.9237895012
00505 1465215563.0769381523 0.9468070269
00506 1465215563.1768257618 0.9468070269
00507 1465215563.2768623829 0.9468070269
00508 1465215563.3767974377 0.9468070269
00509 1465215563.4833171368 0.9468070269
00510 1465215563.5776150227 0.9605613947
00511 1465215563.6771614552 0.9605613947
00512 1465215563.7776002884 0.9605613947
00513 1465215563.8768322468 0.9605613947
00514 1465215563.9767792225 0.9605613947
00515 1465215564.0767774582 0.9605613947
00516 1465215564.1772539616 0.9605613947
00517 1465215564.2768006325 0.9605613947
00518 1465215564.3767364025 0.9605613947
00519 1465215564.4809260368 0.9605613947
00520 1465215564.5768001080 0.9192982316
00521 1465215564.6768150330 0.9192982316
00522 1465215564.7770488262 0.9192982316
00523 1465215564.8770210743 0.9192982316
00524 1465215564.9769122601 0.9192982316
00525 1465215565.0766716003 0.9192982316
00526 1465215565.1766626835 0.9192982316
00527 1465215565.2767481804 0.9192982316
00528 1465215565.3767676353 0.9192982316
00529 1465215565.4766392708 0.9192982316
00530 1465215565.5766804218 0.9192982316
00531 1465215565.6781911850 0.9192982316
00532 1465215565.7769339085 0.9192982316
00533 1465215565.8767225742 0.9192982316
00534 1465215565.9778819084 0.9192982316
00535 1465215566.0766279697 0.9192982316
00536 1465215566.1766622066 0.9192982316
00537 1465215566.2766509056 0.9192982316
00538 1465215566.3766553402 0.9192982316
00539 1465215566.4782071114 0.9192982316
00540 1465215566.5780751705 0.9111579061
00541 1465215566.6769909859 0.9111579061
00542 1465215566.7765200138 0.9111579061
00543 1465215566.8797750473 0.9111579061
00544 1465215566.9789910316 0.9111579061
00545 1465215567.0766580105 0.8940351009
00546 1465215567.1783409119 0.8940351009
00547 1465215567.2768962383 0.8940351009
00548 1465215567.3765027523 0.8940351009
00549 1465215567.4796290398 0.8940351009
00550 1465215567.5767731667 0.8940351009
00551 1465215567.6771953106 0.8940351009
00552 1465215567.7770960331 0.8940351009
00553 1465215567.8777680397 0.8940351009
00554 1465215567.9776339531 0.8940351009
00555 1465215568.0766038895 0.8940351009
00556 1465215568.1766350269 0.8940351009
00557 1465215568.2766296864 0.8940351009
00558 1465215568.3765461445 0.8940351009
00559 1465215568.4766192436 0.8940351009
00560 1465215568.5765633583 0.8940351009
00561 1465215568.6765213013 0.8940351009
00562 1465215568.7770597935 0.8940351009
00563 1465215568.8765344620 0.8940351009
00564 1465215568.9795720577 0.8940351009
00565 1465215569.0765442848 0.8940351009
00566 1465215569.1765518188 0.8940351009
00567 1465215569.2794146538 0.8940351009
00568 1465215569.3764314651 0.8940351009
00569 1465215569.4828922749 0.8940351009
00570 1465215569.5765988827 0.8808420897
00571 1465215569.6771574020 0.8808420897
00572 1465215569.7764537334 0.8808420897
00573 1465215569.8765041828 0.8808420897
00574 1465215569.9826385975 0.8808420897
00575 1465215570.0767557621 0.8606315851
00576 1465215570.1763277054 0.8606315851
00577 1465215570.2763800621 0.8606315851
00578 1465215570.3771076202 0.8606315851
00579 1465215570.4768702984 0.8606315851
00580 1465215570.5763394833 0.8606315851
00581 1465215570.6778156757 0.8606315851
00582 1465215570.7766706944 0.8606315851
00583 1465215570.8766765594 0.8606315851
00584 1465215570.9765512943 0.8606315851
00585 1465215571.0795390606 0.8606315851
00586 1465215571.1763722897 0.8606315851
00587 1465215571.2762956619 0.8606315851
00588 1465215571.3764059544 0.8606315851
00589 1465215571.4779977798 0.8606315851
00590 1465215571.5780839920 0.8494035006
00591 1465215571.6795222759 0.8494035006
00592 1465215571.7764844894 0.8494035006
00593 1465215571.8762948513 0.8494035006
00594 1465215571.9823563099 0.8494035006
00595 1465215572.0763194561 0.8342456222
00596 1465215572.1770524979 0.8342456222
00597 1465215572.2770271301 0.8342456222
00598 1465215572.3762814999 0.8342456222
00599 1465215572.4763081074 0.8342456222
00600 1465215572.5770823956 0.8342456222
00601 1465215572.6762831211 0.8342456222
00602 1465215572.7763054371 0.8342456222
00603 1465215572.8762145042 0.8342456222
00604 1465215572.9826254845 0.8342456222
00605 1465215573.0767085552 0.8530526161
00606 1465215573.1762320995 0.8530526161
00607 1465215573.2763066292 0.8530526161
00608 1465215573.3762543201 0.8530526161
00609 1465215573.4762873650 0.8530526161
00610 1465215573.5816218853 0.8530526161
00611 1465215573.6768016815 0.8530526161
00612 1465215573.7762959003 0.8530526161
00613 1465215573.8766014576 0.8530526161
00614 1465215573.9783070087 0.8530526161
00615 1465215574.0762014389 0.8398596644
00616 1465215574.1766088009 0.8398596644
00617 1465215574.2760834694 0.8398596644
00618 1465215574.3778638840 0.8398596644
00619 1465215574.4764645100 0.8398596644
00620 1465215574.5761790276 0.8398596644
00621 1465215574.6761512756 0.8398596644
00622 1465215574.7762169838 0.8398596644
00623 1465215574.8761551380 0.8398596644
00624 1465215574.9761185646 0.8398596644
00625 1465215575.0760736465 0.8398596644
00626 1465215575.1774146557 0.8398596644
00627 1465215575.2763800621 0.8398596644
00628 1465215575.3762333393 0.8398596644
00629 1465215575.4767405987 0.8398596644
00630 1465215575.5761504173 0.8398596644
00631 1465215575.6777424812 0.8398596644
00632 1465215575.7770266533 0.8398596644
00633 1465215575.8769903183 0.8398596644
00634 1465215575.9760913849 0.8398596644
00635 1465215576.0769851208 0.8398596644
00636 1465215576.1769535542 0.8398596644
00637 1465215576.2760593891 0.8398596644
00638 1465215576.3760826588 0.8398596644
00639 1465215576.4777855873 0.8398596644
00640 1465215576.5760517120 0.8398596644
00641 1465215576.6775074005 0.8398596644
00642 1465215576.7763171196 0.8398596644
00643 1465215576.8760566711 0.8398596644
00644 1465215576.9777953625 0.8398596644
00645 1465215577.0764226913 0.8398596644
00646 1465215577.1760721207 0.8398596644
00647 1465215577.2775144577 0.8398596644
00648 1465215577.3763289452 0.8398596644
00649 1465215577.4760677814 0.8398596644
00650 1465215577.5778150558 0.8398596644
00651 1465215577.6810288429 0.8398596644
00652 1465215577.7765417099 0.8398596644
00653 1465215577.8760731220 0.8398596644
00654 1465215577.9760560989 0.8398596644
00655 1465215578.0760974884 0.8398596644
00656 1465215578.1760315895 0.8398596644
00657 1465215578.2791154385 0.8398596644
00658 1465215578.3762569427 0.8398596644
00659 1465215578.4792253971 0.8398596644
00660 1465215578.5791256428 0.8168420792
00661 1465215578.6759676933 0.8168420792
00662 1465215578.7759227753 0.8168420792
00663 1465215578.8759186268 0.8168420792
00664 1465215578.9779336452 0.8168420792
00665 1465215579.0758709908 0.7985965014
00666 1465215579.1790134907 0.7985965014
00667 1465215579.2758994102 0.7985965014
00668 1465215579.3758354187 0.7985965014
00669 1465215579.4819548130 0.7985965014
00670 1465215579.5760321617 0.7744561434
00671 1465215579.6771354675 0.7744561434
00672 1465215579.7763917446 0.7744561434
00673 1465215579.8762013912 0.7744561434
00674 1465215579.9780490398 0.7744561434
00675 1465215580.0757849216 0.7534034848
00676 1465215580.1758642197 0.7534034848
00677 1465215580.2759428024 0.7534034848
00678 1465215580.3757767677 0.7534034848
00679 1465215580.4813735485 0.7534034848
00680 1465215580.5762724876 0.7323508859
00681 1465215580.6757695675 0.7323508859
00682 1465215580.7779896259 0.7323508859
00683 1465215580.8762629032 0.7323508859
00684 1465215580.9838752747 0.7323508859
00685 1465215581.0758712292 0.7160701752
00686 1465215581.1758542061 0.7160701752
00687 1465215581.2794890404 0.7160701752
00688 1465215581.3761188984 0.7160701752
00689 1465215581.4788506031 0.7160701752
00690 1465215581.5757479668 0.6978245378
00691 1465215581.6757576466 0.6978245378
00692 1465215581.7761523724 0.6978245378
00693 1465215581.8789231777 0.6978245378
00694 1465215581.9788441658 0.6978245378
00695 1465215582.0758643150 0.6877192855
00696 1465215582.1789889336 0.6877192855
00697 1465215582.2758488655 0.6877192855
00698 1465215582.3758232594 0.6877192855
00699 1465215582.4762482643 0.6877192855
00700 1465215582.5757777691 0.6877192855
00701 1465215582.6797072887 0.6877192855
00702 1465215582.7761905193 0.6877192855
00703 1465215582.8760576248 0.6877192855
00704 1465215582.9757287502 0.6877192855
00705 1465215583.0788018703 0.6877192855
00706 1465215583.1760146618 0.6877192855
00707 1465215583.2757613659 0.6877192855
00708 1465215583.3759193420 0.6877192855
00709 1465215583.4757783413 0.6877192855
00710 1465215583.5757675171 0.6877192855
00711 1465215583.6787433624 0.6877192855
00712 1465215583.7759006023 0.6877192855
00713 1465215583.8757104874 0.6877192855
00714 1465215583.9763886929 0.6877192855
00715 1465215584.0757141113 0.6877192855
00716 1465215584.1760551929 0.6877192855
00717 1465215584.2757413387 0.6877192855
00718 1465215584.3757753372 0.6877192855
00719 1465215584.4800002575 0.6877192855
00720 1465215584.5759036541 0.7326315641
00721 1465215584.6761467457 0.7326315641
00722 1465215584.7780086994 0.7326315641
00723 1465215584.8755934238 0.7326315641
00724 1465215584.9779286385 0.7326315641
00725 1465215585.0757012367 0.8064561486
00726 1465215585.1788365841 0.8064561486
00727 1465215585.2756817341 0.8064561486
00728 1465215585.3759963512 0.8064561486
00729 1465215585.4784147739 0.8064561486
00730 1465215585.5756335258 0.8943157792
00731 1465215585.6757872105 0.8943157792
00732 1465215585.7755880356 0.8943157792
00733 1465215585.8760175705 0.8943157792
00734 1465215585.9779884815 0.8943157792
00735 1465215586.0755500793 0.9731929898
00736 1465215586.1756255627 0.9731929898
00737 1465215586.2755694389 0.9731929898
00738 1465215586.3766510487 0.9731929898
00739 1465215586.4774246216 0.9731929898
00740 1465215586.5755629539 1.0661052465
00741 1465215586.6761226654 1.0661052465
00742 1465215586.7759644985 1.0661052465
00743 1465215586.8765079975 1.0661052465
00744 1465215586.9792506695 1.0661052465
00745 1465215587.0754396915 1.1211228371
00746 1465215587.1757564545 1.1211228371
00747 1465215587.2785394192 1.1211228371
00748 1465215587.3757140636 1.1211228371
00749 1465215587.4790422916 1.1211228371
00750 1465215587.5761654377 1.1769824028
00751 1465215587.6755757332 1.1769824028
00752 1465215587.7754988670 1.1769824028
00753 1465215587.8785789013 1.1769824028
00754 1465215587.9754848480 1.1769824028
00755 1465215588.0755202770 1.1769824028
00756 1465215588.1755778790 1.1769824028
00757 1465215588.2754549980 1.1769824028
00758 1465215588.3755269051 1.1769824028
00759 1465215588.4779336452 1.1769824028
00760 1465215588.5777387619 1.1918596029
00761 1465215588.6760072708 1.1918596029
00762 1465215588.7753686905 1.1918596029
00763 1465215588.8754665852 1.1918596029
00764 1465215588.9773395061 1.1918596029
00765 1465215589.0754058361 1.1887719631
00766 1465215589.1769022942 1.1887719631
00767 1465215589.2756493092 1.1887719631
00768 1465215589.3754818439 1.1887719631
00769 1465215589.4799525738 1.1887719631
00770 1465215589.5757355690 1.1736140251
00771 1465215589.6752490997 1.1736140251
00772 1465215589.7752883434 1.1736140251
00773 1465215589.8752322197 1.1736140251
00774 1465215589.9786329269 1.1736140251
00775 1465215590.0766215324 1.1576139927
00776 1465215590.1755917072 1.1576139927
00777 1465215590.2754130363 1.1576139927
00778 1465215590.3754150867 1.1576139927
00779 1465215590.4788358212 1.1576139927
00780 1465215590.5754308701 1.1315088272
00781 1465215590.6753668785 1.1315088272
00782 1465215590.7753784657 1.1315088272
00783 1465215590.8752605915 1.1315088272
00784 1465215590.9775774479 1.1315088272
00785 1465215591.0789210796 1.1132631302
00786 1465215591.1764969826 1.1132631302
00787 1465215591.2753074169 1.1132631302
00788 1465215591.3753490448 1.1132631302
00789 1465215591.4781837463 1.1132631302
00790 1465215591.5753071308 1.0969824791
00791 1465215591.6779425144 1.0969824791
00792 1465215591.7781152725 1.0969824791
00793 1465215591.8753223419 1.0969824791
00794 1465215591.9771528244 1.0969824791
00795 1465215592.0761945248 1.0818245411
00796 1465215592.1769959927 1.0818245411
00797 1465215592.2756121159 1.0818245411
00798 1465215592.3751864433 1.0818245411
00799 1465215592.4778375626 1.0818245411
00800 1465215592.5766134262 1.0537543297
00801 1465215592.6765139103 1.0537543297
00802 1465215592.7757902145 1.0537543297
00803 1465215592.8755347729 1.0537543297
00804 1465215592.9785099030 1.0537543297
00805 1465215593.0754270554 1.0237193108
00806 1465215593.1754302979 1.0237193108
00807 1465215593.2764301300 1.0237193108
00808 1465215593.3751556873 1.0237193108
00809 1465215593.4751546383 1.0237193108
00810 1465215593.5752406120 1.0237193108
00811 1465215593.6750419140 1.0237193108
00812 1465215593.7769997120 1.0237193108
00813 1465215593.8750081062 1.0237193108
00814 1465215593.9791061878 1.0237193108
00815 1465215594.0754730701 1.0694737434
00816 1465215594.1751973629 1.0694737434
00817 1465215594.2752041817 1.0694737434
00818 1465215594.3751413822 1.0694737434
00819 1465215594.4781646729 1.0694737434
00820 1465215594.5751042366 1.0694737434
00821 1465215594.6750590801 1.0694737434
00822 1465215594.7752110958 1.0694737434
00823 1465215594.8756077290 1.0694737434
00824 1465215594.9772820473 1.0694737434
00825 1465215595.0751557350 1.0952982903
00826 1465215595.1751170158 1.0952982903
00827 1465215595.2765171528 1.0952982903
00828 1465215595.3755629063 1.0952982903
00829 1465215595.4778518677 1.0952982903
00830 1465215595.5751068592 1.1542456150
00831 1465215595.6780865192 1.1542456150
00832 1465215595.7750029564 1.1542456150
00833 1465215595.8754501343 1.1542456150
00834 1465215595.9812343121 1.1542456150
00835 1465215596.0751223564 1.1792280674
00836 1465215596.1750400066 1.1792280674
00837 1465215596.2754685879 1.1792280674
00838 1465215596.3750138283 1.1792280674
00839 1465215596.4750816822 1.1792280674
00840 1465215596.5750141144 1.1792280674
00841 1465215596.6756367683 1.1792280674
00842 1465215596.7750234604 1.1792280674
00843 1465215596.8758623600 1.1792280674
00844 1465215596.9780137539 1.1792280674
00845 1465215597.0751285553 1.2261052132
00846 1465215597.1774899960 1.2261052132
00847 1465215597.2749581337 1.2261052132
00848 1465215597.3749349117 1.2261052132
00849 1465215597.4811813831 1.2261052132
00850 1465215597.5750527382 1.2718596458
00851 1465215597.6763486862 1.2718596458
00852 1465215597.7748832703 1.2718596458
00853 1465215597.8768980503 1.2718596458
00854 1465215597.9772448540 1.2718596458
00855 1465215598.0752871037 1.3066666126
00856 1465215598.1769213676 1.3066666126
00857 1465215598.2749912739 1.3066666126
00858 1465215598.3803777695 1.3066666126
00859 1465215598.4782586098 1.3066666126
00860 1465215598.5755479336 1.3414736986
00861 1465215598.6748871803 1.3414736986
00862 1465215598.7749502659 1.3414736986
00863 1465215598.8749256134 1.3414736986
00864 1465215598.9749178886 1.3414736986
00865 1465215599.0749249458 1.3414736986
00866 1465215599.1750755310 1.3414736986
00867 1465215599.2749431133 1.3414736986
00868 1465215599.3762578964 1.3414736986
00869 1465215599.4751896858 1.3414736986
00870 1465215599.5749902725 1.3414736986
00871 1465215599.6763484478 1.3414736986
00872 1465215599.7785742283 1.3414736986
00873 1465215599.8748154640 1.3414736986
00874 1465215599.9774119854 1.3414736986
00875 1465215600.0780715942 1.3414736986
00876 1465215600.1747989655 1.3414736986
00877 1465215600.2778038979 1.3414736986
00878 1465215600.3747293949 1.3414736986
00879 1465215600.4773814678 1.3414736986
00880 1465215600.5747509003 1.3232281208
00881 1465215600.6778309345 1.3232281208
00882 1465215600.7766797543 1.3232281208
00883 1465215600.8763656616 1.3232281208
00884 1465215600.9779617786 1.3232281208
00885 1465215601.0749914646 1.2971228361
00886 1465215601.1754980087 1.2971228361
00887 1465215601.2747647762 1.2971228361
00888 1465215601.3747310638 1.2971228361
00889 1465215601.4791901112 1.2971228361
00890 1465215601.5770487785 1.2628772259
00891 1465215601.6755409241 1.2628772259
00892 1465215601.7754361629 1.2628772259
00893 1465215601.8748009205 1.2628772259
00894 1465215601.9755640030 1.2628772259
00895 1465215602.0747613907 1.2628772259
00896 1465215602.1747465134 1.2628772259
00897 1465215602.2761685848 1.2628772259
00898 1465215602.3750493526 1.2628772259
00899 1465215602.4747054577 1.2628772259
00900 1465215602.5763676167 1.2628772259
00901 1465215602.6752340794 1.2628772259
00902 1465215602.7756538391 1.2628772259
00903 1465215602.8767781258 1.2628772259
00904 1465215602.9747571945 1.2628772259
00905 1465215603.0747060776 1.2628772259
00906 1465215603.1745970249 1.2628772259
00907 1465215603.2747254372 1.2628772259
00908 1465215603.3747658730 1.2628772259
00909 1465215603.4745879173 1.2628772259
00910 1465215603.5747196674 1.2628772259
00911 1465215603.6751766205 1.2628772259
00912 1465215603.7746798992 1.2628772259
00913 1465215603.8750467300 1.2628772259
00914 1465215603.9750466347 1.2628772259
00915 1465215604.0799083710 1.2628772259
00916 1465215604.1745815277 1.2628772259
00917 1465215604.2764046192 1.2628772259
00918 1465215604.3749539852 1.2628772259
00919 1465215604.4770569801 1.2628772259
00920 1465215604.5811491013 1.2067368031
00921 1465215604.6754913330 1.2067368031
00922 1465215604.7750036716 1.2067368031
00923 1465215604.8750514984 1.2067368031
00924 1465215604.9816634655 1.2067368031
00925 1465215605.0758984089 1.1786667109
00926 1465215605.1748845577 1.1786667109
00927 1465215605.2745714188 1.1786667109
00928 1465215605.3746471405 1.1786667109
00929 1465215605.4787173271 1.1786667109
00930 1465215605.5762732029 1.1194386482
00931 1465215605.6748878956 1.1194386482
00932 1465215605.7749018669 1.1194386482
00933 1465215605.8744835854 1.1194386482
00934 1465215605.9765460491 1.1194386482
00935 1465215606.0746190548 1.0703158379
00936 1465215606.1744654179 1.0703158379
00937 1465215606.2746098042 1.0703158379
00938 1465215606.3766725063 1.0703158379
00939 1465215606.4774494171 1.0703158379
00940 1465215606.5745382309 1.0312982798
00941 1465215606.6774475574 1.0312982798
00942 1465215606.7763819695 1.0312982798
00943 1465215606.8758547306 1.0312982798
00944 1465215606.9770016670 1.0312982798
00945 1465215607.0789182186 1.0021052361
00946 1465215607.1766736507 1.0021052361
00947 1465215607.2764678001 1.0021052361
00948 1465215607.3751280308 1.0021052361
00949 1465215607.4767296314 1.0021052361
00950 1465215607.5743680000 0.9689824581
00951 1465215607.6744067669 0.9689824581
00952 1465215607.7744925022 0.9689824581
00953 1465215607.8758776188 0.9689824581
00954 1465215607.9763760567 0.9689824581
00955 1465215608.0744159222 0.9319298267
00956 1465215608.1755366325 0.9319298267
00957 1465215608.2757124901 0.9319298267
00958 1465215608.3748331070 0.9319298267
00959 1465215608.4764218330 0.9319298267
00960 1465215608.5743966103 0.9128420949
00961 1465215608.6743848324 0.9128420949
00962 1465215608.7744657993 0.9128420949
00963 1465215608.8771548271 0.9128420949
00964 1465215608.9744563103 0.9128420949
00965 1465215609.0745437145 0.9128420949
00966 1465215609.1742770672 0.9128420949
00967 1465215609.2743277550 0.9128420949
00968 1465215609.3743593693 0.9128420949
00969 1465215609.4766836166 0.9128420949
00970 1465215609.5758652687 0.9257543683
00971 1465215609.6746695042 0.9257543683
00972 1465215609.7768502235 0.9257543683
00973 1465215609.8780317307 0.9257543683
00974 1465215609.9756178856 0.9257543683
00975 1465215610.0746726990 0.9257543683
00976 1465215610.1743960381 0.9257543683
00977 1465215610.2753431797 0.9257543683
00978 1465215610.3752729893 0.9257543683
00979 1465215610.4743070602 0.9257543683
00980 1465215610.5752663612 0.9257543683
00981 1465215610.6742725372 0.9257543683
00982 1465215610.7743561268 0.9257543683
00983 1465215610.8742661476 0.9257543683
00984 1465215610.9765181541 0.9257543683
00985 1465215611.0745913982 0.9257543683
00986 1465215611.1743130684 0.9257543683
00987 1465215611.2760608196 0.9257543683
00988 1465215611.3745782375 0.9257543683
00989 1465215611.4741811752 0.9257543683
00990 1465215611.5741395950 0.9257543683
00991 1465215611.6749083996 0.9257543683
00992 1465215611.7762248516 0.9257543683
00993 1465215611.8741869926 0.9257543683
00994 1465215611.9788565636 0.9257543683
00995 1465215612.0744566917 0.9257543683
00996 1465215612.1741132736 0.9257543683
00997 1465215612.2743000984 0.9257543683
00998 1465215612.3742625713 0.9257543683
00999 1465215612.4761602879 0.9257543683
01000 1465215612.5742127895 0.9535438418
01001 1465215612.6741402149 0.9535438418
01002 1465215612.7783136368 0.9535438418
01003 1465215612.8744261265 0.9535438418
01004 1465215612.9742016792 0.9535438418
01005 1465215613.0740156174 0.9535438418
01006 1465215613.1743321419 0.9535438418
01007 1465215613.2751004696 0.9535438418
01008 1465215613.3760271072 0.9535438418
01009 1465215613.4768223763 0.9535438418
01010 1465215613.5769968033 0.9364210367
01011 1465215613.6741468906 0.9364210367
01012 1465215613.7740681171 0.9364210367
01013 1465215613.8745834827 0.9364210367
01014 1465215613.9762537479 0.9364210367
01015 1465215614.0743896961 0.9282807112
01016 1465215614.1743028164 0.9282807112
01017 1465215614.2744107246 0.9282807112
01018 1465215614.3741965294 0.9282807112
01019 1465215614.4775164127 0.9282807112
01020 1465215614.5771844387 0.9122806787
01021 1465215614.6761934757 0.9122806787
01022 1465215614.7747402191 0.9122806787
01023 1465215614.8802602291 0.9122806787
01024 1465215614.9765148163 0.9122806787
01025 1465215615.0757579803 0.8912280798
01026 1465215615.1743059158 0.8912280798
01027 1465215615.2739884853 0.8912280798
01028 1465215615.3740677834 0.8912280798
01029 1465215615.4763178825 0.8912280798
01030 1465215615.5739650726 0.8690526485
01031 1465215615.6749303341 0.8690526485
01032 1465215615.7743806839 0.8690526485
01033 1465215615.8761224747 0.8690526485
01034 1465215615.9762501717 0.8690526485
01035 1465215616.0739071369 0.8558596373
01036 1465215616.1741213799 0.8558596373
01037 1465215616.2740018368 0.8558596373
01038 1465215616.3759429455 0.8558596373
01039 1465215616.4784104824 0.8558596373
01040 1465215616.5743274689 0.8687719107
01041 1465215616.6738696098 0.8687719107
01042 1465215616.7738890648 0.8687719107
01043 1465215616.8739123344 0.8687719107
01044 1465215616.9773595333 0.8687719107
01045 1465215617.0742154121 0.8965613842
01046 1465215617.1743230820 0.8965613842
01047 1465215617.2739143372 0.8965613842
01048 1465215617.3739678860 0.8965613842
01049 1465215617.4773828983 0.8965613842
01050 1465215617.5770554543 0.9274386168
01051 1465215617.6748108864 0.9274386168
01052 1465215617.7745625973 0.9274386168
01053 1465215617.8739607334 0.9274386168
01054 1465215617.9768548012 0.9274386168
01055 1465215618.0740237236 0.9642105103
01056 1465215618.1764652729 0.9642105103
01057 1465215618.2756416798 0.9642105103
01058 1465215618.3743109703 0.9642105103
01059 1465215618.4738068581 0.9642105103
01060 1465215618.5738976002 0.9642105103
01061 1465215618.6801066399 0.9642105103
01062 1465215618.7749845982 0.9642105103
01063 1465215618.8738934994 0.9642105103
01064 1465215618.9757921696 0.9642105103
01065 1465215619.0743620396 0.9529824853
01066 1465215619.1740512848 0.9529824853
01067 1465215619.2739715576 0.9529824853
01068 1465215619.3737998009 0.9529824853
01069 1465215619.4767072201 0.9529824853
01070 1465215619.5751261711 0.9288421273
01071 1465215619.6739923954 0.9288421273
01072 1465215619.7736930847 0.9288421273
01073 1465215619.8738648891 0.9288421273
01074 1465215619.9795515537 0.9288421273
01075 1465215620.0737438202 0.9007719159
01076 1465215620.1737825871 0.9007719159
01077 1465215620.2786762714 0.9007719159
01078 1465215620.3744506836 0.9007719159
01079 1465215620.4763154984 0.9007719159
01080 1465215620.5737121105 0.8727017641
01081 1465215620.6746997833 0.8727017641
01082 1465215620.7739303112 0.8727017641
01083 1465215620.8737277985 0.8727017641
01084 1465215620.9769492149 0.8727017641
01085 1465215621.0737147331 0.8524912000
01086 1465215621.1736972332 0.8524912000
01087 1465215621.2761507034 0.8524912000
01088 1465215621.3740353584 0.8524912000
01089 1465215621.4770939350 0.8524912000
01090 1465215621.5766301155 0.8513684273
01091 1465215621.6739976406 0.8513684273
01092 1465215621.7736732960 0.8513684273
01093 1465215621.8737094402 0.8513684273
01094 1465215621.9755101204 0.8513684273
01095 1465215622.0780186653 0.8693333268
01096 1465215622.1737186909 0.8693333268
01097 1465215622.2752377987 0.8693333268
01098 1465215622.3742077351 0.8693333268
01099 1465215622.4757769108 0.8693333268
01100 1465215622.5737044811 0.8881403804
01101 1465215622.6768031120 0.8881403804
01102 1465215622.7736368179 0.8881403804
01103 1465215622.8757085800 0.8881403804
01104 1465215622.9757602215 0.8881403804
01105 1465215623.0736298561 0.9111579061
01106 1465215623.1735634804 0.9111579061
01107 1465215623.2735333443 0.9111579061
01108 1465215623.3744261265 0.9111579061
01109 1465215623.4760470390 0.9111579061
01110 1465215623.5737845898 0.9369824529
01111 1465215623.6735899448 0.9369824529
01112 1465215623.7759182453 0.9369824529
01113 1465215623.8740668297 0.9369824529
01114 1465215623.9734759331 0.9369824529
01115 1465215624.0734975338 0.9369824529
01116 1465215624.1735315323 0.9369824529
01117 1465215624.2736604214 0.9369824529
01118 1465215624.3741686344 0.9369824529
01119 1465215624.4740431309 0.9369824529
01120 1465215624.5736048222 0.9369824529
01121 1465215624.6735692024 0.9369824529
01122 1465215624.7740409374 0.9369824529
01123 1465215624.8735814095 0.9369824529
01124 1465215624.9735231400 0.9369824529
01125 1465215625.0733995438 0.9369824529
01126 1465215625.1735212803 0.9369824529
01127 1465215625.2734353542 0.9369824529
01128 1465215625.3734121323 0.9369824529
01129 1465215625.4737899303 0.9369824529
01130 1465215625.5734355450 0.9369824529
01131 1465215625.6734020710 0.9369824529
01132 1465215625.7733764648 0.9369824529
01133 1465215625.8735101223 0.9369824529
01134 1465215625.9744069576 0.9369824529
01135 1465215626.0734124184 0.9369824529
01136 1465215626.1734871864 0.9369824529
01137 1465215626.2741744518 0.9369824529
01138 1465215626.3733522892 0.9369824529
01139 1465215626.4739074707 0.9369824529
01140 1465215626.5764605999 0.9369824529
01141 1465215626.6741826534 0.9369824529
01142 1465215626.7733614445 0.9369824529
01143 1465215626.8750910759 0.9369824529
01144 1465215626.9737832546 0.9369824529
01145 1465215627.0733942986 0.9369824529
01146 1465215627.1733505726 0.9369824529
01147 1465215627.2734005451 0.9369824529
01148 1465215627.3733611107 0.9369824529
01149 1465215627.4732694626 0.9369824529
01150 1465215627.5748825073 0.9369824529
01151 1465215627.6739320755 0.9369824529
01152 1465215627.7733633518 0.9369824529
01153 1465215627.8734235764 0.9369824529
01154 1465215627.9755816460 0.9369824529
01155 1465215628.0736949444 0.9319298267
01156 1465215628.1732246876 0.9319298267
01157 1465215628.2747762203 0.9319298267
01158 1465215628.3736553192 0.9319298267
01159 1465215628.4733917713 0.9319298267
01160 1465215628.5748696327 0.9319298267
01161 1465215628.6735980511 0.9319298267
01162 1465215628.7733082771 0.9319298267
01163 1465215628.8747663498 0.9319298267
01164 1465215628.9754493237 0.9319298267
01165 1465215629.0734076500 0.9748771787
01166 1465215629.1733801365 0.9748771787
01167 1465215629.2749540806 0.9748771787
01168 1465215629.3736212254 0.9748771787
01169 1465215629.4757971764 0.9748771787
01170 1465215629.5732948780 0.9967719316
01171 1465215629.6740314960 0.9967719316
01172 1465215629.7747926712 0.9967719316
01173 1465215629.8735637665 0.9967719316
01174 1465215629.9733059406 0.9967719316
01175 1465215630.0733194351 0.9967719316
01176 1465215630.1751291752 0.9967719316
01177 1465215630.2736105919 0.9967719316
01178 1465215630.3731312752 0.9967719316
01179 1465215630.4796750546 0.9967719316
01180 1465215630.5736770630 0.9605613947
01181 1465215630.6731741428 0.9605613947
01182 1465215630.7731912136 0.9605613947
01183 1465215630.8732595444 0.9605613947
01184 1465215630.9751892090 0.9605613947
01185 1465215631.0763900280 0.9305263162
01186 1465215631.1731843948 0.9305263162
01187 1465215631.2739741802 0.9305263162
01188 1465215631.3732271194 0.9305263162
01189 1465215631.4792609215 0.9305263162
01190 1465215631.5731425285 0.9013333321
01191 1465215631.6793808937 0.9013333321
01192 1465215631.7731029987 0.9013333321
01193 1465215631.8732697964 0.9013333321
01194 1465215631.9793789387 0.9013333321
01195 1465215632.0731298923 0.9013333321
01196 1465215632.1747283936 0.9013333321
01197 1465215632.2736990452 0.9013333321
01198 1465215632.3730766773 0.9013333321
01199 1465215632.4773705006 0.9013333321
01200 1465215632.5733485222 0.9403508902
01201 1465215632.6734509468 0.9403508902
01202 1465215632.7750215530 0.9403508902
01203 1465215632.8757531643 0.9403508902
01204 1465215632.9761385918 0.9403508902
01205 1465215633.0733804703 0.9571929574
01206 1465215633.1760225296 0.9571929574
01207 1465215633.2731034756 0.9571929574
01208 1465215633.3733103275 0.9571929574
01209 1465215633.4747710228 0.9571929574
01210 1465215633.5736207962 0.9571929574
01211 1465215633.6731269360 0.9571929574
01212 1465215633.7736351490 0.9571929574
01213 1465215633.8731009960 0.9571929574
01214 1465215633.9747548103 0.9571929574
01215 1465215634.0762076378 0.9221052527
01216 1465215634.1731693745 0.9221052527
01217 1465215634.2734630108 0.9221052527
01218 1465215634.3761281967 0.9221052527
01219 1465215634.4748961926 0.9221052527
01220 1465215634.5730986595 0.9150876999
01221 1465215634.6762406826 0.9150876999
01222 1465215634.7755870819 0.9150876999
01223 1465215634.8735556602 0.9150876999
01224 1465215634.9757213593 0.9150876999
01225 1465215635.0729949474 0.9030175209
01226 1465215635.1730773449 0.9030175209
01227 1465215635.2729520798 0.9030175209
01228 1465215635.3738546371 0.9030175209
01229 1465215635.4754467010 0.9030175209
01230 1465215635.5741982460 0.8828070164
01231 1465215635.6747622490 0.8828070164
01232 1465215635.7732529640 0.8828070164
01233 1465215635.8729608059 0.8828070164
01234 1465215635.9730002880 0.8828070164
01235 1465215636.0730056763 0.8828070164
01236 1465215636.1728694439 0.8828070164
01237 1465215636.2737960815 0.8828070164
01238 1465215636.3730425835 0.8828070164
01239 1465215636.4759776592 0.8828070164
01240 1465215636.5729079247 0.8828070164
01241 1465215636.6729588509 0.8828070164
01242 1465215636.7791285515 0.8828070164
01243 1465215636.8728892803 0.8828070164
01244 1465215636.9747672081 0.8828070164
01245 1465215637.0735890865 0.9265964627
01246 1465215637.1728618145 0.9265964627
01247 1465215637.2742669582 0.9265964627
01248 1465215637.3740835190 0.9265964627
01249 1465215637.4755465984 0.9265964627
01250 1465215637.5728626251 0.9524210691
01251 1465215637.6744468212 0.9524210691
01252 1465215637.7731394768 0.9524210691
01253 1465215637.8728492260 0.9524210691
01254 1465215637.9772350788 0.9524210691
01255 1465215638.0732100010 0.9403508902
01256 1465215638.1728041172 0.9403508902
01257 1465215638.2727894783 0.9403508902
01258 1465215638.3728973866 0.9403508902
01259 1465215638.4756391048 0.9403508902
01260 1465215638.5760073662 0.9381052852
01261 1465215638.6727850437 0.9381052852
01262 1465215638.7733457088 0.9381052852
01263 1465215638.8727307320 0.9381052852
01264 1465215638.9756402969 0.9381052852
01265 1465215639.0747416019 0.9249122739
01266 1465215639.1741330624 0.9249122739
01267 1465215639.2726979256 0.9249122739
01268 1465215639.3743884563 0.9249122739
01269 1465215639.4750761986 0.9249122739
01270 1465215639.5728282928 0.8996491432
01271 1465215639.6734793186 0.8996491432
01272 1465215639.7734560966 0.8996491432
01273 1465215639.8727741241 0.8996491432
01274 1465215639.9748055935 0.8996491432
01275 1465215640.0734016895 0.8814035058
01276 1465215640.1844551563 0.8814035058
01277 1465215640.2737123966 0.8814035058
01278 1465215640.3737480640 0.8814035058
01279 1465215640.4750518799 0.8814035058
01280 1465215640.5726938248 0.8603509068
01281 1465215640.6758644581 0.8603509068
01282 1465215640.7726395130 0.8603509068
01283 1465215640.8727004528 0.8603509068
