\relax 
\providecommand\hyper@newdestlabel[2]{}
\providecommand*{\memsetcounter}[2]{}
\catcode `"\active 
\catcode `-\active 
\providecommand\HyperFirstAtBeginDocument{\AtBeginDocument}
\HyperFirstAtBeginDocument{\ifx\hyper@anchor\@undefined
\global\let\oldcontentsline\contentsline
\gdef\contentsline#1#2#3#4{\oldcontentsline{#1}{#2}{#3}}
\global\let\oldnewlabel\newlabel
\gdef\newlabel#1#2{\newlabelxx{#1}#2}
\gdef\newlabelxx#1#2#3#4#5#6{\oldnewlabel{#1}{{#2}{#3}}}
\AtEndDocument{\ifx\hyper@anchor\@undefined
\let\contentsline\oldcontentsline
\let\newlabel\oldnewlabel
\fi}
\fi}
\global\let\hyper@last\relax 
\gdef\HyperFirstAtBeginDocument#1{#1}
\providecommand\HyField@AuxAddToFields[1]{}
\providecommand\HyField@AuxAddToCoFields[2]{}
\babel@aux{czech}{}
\babel@aux{czech}{}
\@writefile{toc}{\contentsline {subsection}{Odkaz na tuto pr{\' a}ci}{vi}{section*.1}\protected@file@percent }
\@writefile{lof}{\addvspace {10pt}}
\@writefile{lot}{\addvspace {10pt}}
\@writefile{toc}{\contentsline {chapter}{{\' U}vod}{1}{chapter*.5}\protected@file@percent }
\@writefile{lof}{\addvspace {10pt}}
\@writefile{lot}{\addvspace {10pt}}
\@writefile{toc}{\contentsline {chapter}{\chapternumberline {1}N\IeC {\v e}jak\IeC {\'a} kapitola}{3}{chapter.1}\protected@file@percent }
\@writefile{toc}{\contentsline {section}{\numberline {1.1}N\IeC {\v e}jak\IeC {\'a} sekce}{3}{section.1.1}\protected@file@percent }
\@writefile{lof}{\addvspace {10pt}}
\@writefile{lot}{\addvspace {10pt}}
\@writefile{toc}{\contentsline {chapter}{\chapternumberline {2}Dal\IeC {\v s}\IeC {\'\i } kapitola}{5}{chapter.2}\protected@file@percent }
\bibstyle{csn690}
\bibdata{mybibliographyfile}
\@writefile{lof}{\addvspace {10pt}}
\@writefile{lot}{\addvspace {10pt}}
\@writefile{toc}{\contentsline {chapter}{Z{\' a}v{\v e}r}{7}{chapter*.6}\protected@file@percent }
\@writefile{lof}{\addvspace {10pt}}
\@writefile{lot}{\addvspace {10pt}}
\@writefile{toc}{\contentsline {appendix}{\chapternumberline {A}Seznam pou\IeC {\v z}it\IeC {\'y}ch zkratek}{9}{appendix.A}\protected@file@percent }
\@writefile{lof}{\addvspace {10pt}}
\@writefile{lot}{\addvspace {10pt}}
\@writefile{toc}{\contentsline {appendix}{\chapternumberline {B}N\IeC {\'a}vod k~pou\IeC {\v z}it\IeC {\'\i } t\IeC {\'e}to \IeC {\v s}ablony}{11}{appendix.B}\protected@file@percent }
\@writefile{toc}{\contentsline {section}{\numberline {B.1}V\IeC {\'y}b\IeC {\v e}r z\IeC {\'a}kladu}{11}{section.B.1}\protected@file@percent }
\citation{rybicka}
\citation{kobltypo}
\@writefile{toc}{\contentsline {section}{\numberline {B.2}Pou\IeC {\v z}it\IeC {\'\i } \IeC {\v s}ablony}{12}{section.B.2}\protected@file@percent }
\@writefile{toc}{\contentsline {subsection}{\numberline {B.2.1}Typografie}{12}{subsection.B.2.1}\protected@file@percent }
\@writefile{toc}{\contentsline {subsection}{\numberline {B.2.2}Obr\IeC {\'a}zky}{12}{subsection.B.2.2}\protected@file@percent }
\citation{svgspec}
\@writefile{toc}{\contentsline {subsubsection}{\numberline {B.2.2.1}Form\IeC {\'a}ty grafiky}{13}{subsubsection.B.2.2.1}\protected@file@percent }
\@writefile{toc}{\contentsline {subsubsection}{\numberline {B.2.2.2}Z\IeC {\'\i }sk\IeC {\'a}n\IeC {\'\i } vhodn\IeC {\'e}ho form\IeC {\'a}tu}{13}{subsubsection.B.2.2.2}\protected@file@percent }
\@writefile{toc}{\contentsline {subsubsection}{\numberline {B.2.2.3}Plovouc\IeC {\'\i } prost\IeC {\v r}ed\IeC {\'\i }}{13}{subsubsection.B.2.2.3}\protected@file@percent }
\@writefile{lof}{\contentsline {figure}{\numberline {B.1}{\ignorespaces P\IeC {\v r}\IeC {\'\i }klad obr\IeC {\'a}zku}}{14}{figure.B.1}\protected@file@percent }
\newlabel{fig:float}{{\M@TitleReference {B.1}{P\IeC {\v r}\IeC {\'\i }klad obr\IeC {\'a}zku}}{14}{Příklad obrázku}{figure.B.1}{}}
\@writefile{lof}{\contentsline {figure}{\numberline {B.2}{\ignorespaces Gnuplot \IeC {\v c}ernob\IeC {\'\i }le}}{14}{figure.B.2}\protected@file@percent }
\newlabel{fig:gnuplot-bw}{{\M@TitleReference {B.2}{Gnuplot \IeC {\v c}ernob\IeC {\'\i }le}}{14}{Gnuplot černobíle}{figure.B.2}{}}
\@writefile{lof}{\contentsline {figure}{\numberline {B.3}{\ignorespaces Gnuplot barevn\IeC {\v e}}}{14}{figure.B.3}\protected@file@percent }
\newlabel{fig:gnuplot-col}{{\M@TitleReference {B.3}{Gnuplot barevn\IeC {\v e}}}{14}{Gnuplot barevně}{figure.B.3}{}}
\@writefile{toc}{\contentsline {subsubsection}{\numberline {B.2.2.4}Verze obr\IeC {\'a}zk\IeC {\r u}}{14}{subsubsection.B.2.2.4}\protected@file@percent }
\@writefile{toc}{\contentsline {subsection}{\numberline {B.2.3}Tabulky}{14}{subsection.B.2.3}\protected@file@percent }
\@writefile{lot}{\contentsline {table}{\numberline {B.1}{\ignorespaces P\IeC {\v r}\IeC {\'\i }klad tabulky}}{14}{table.B.1}\protected@file@percent }
\newlabel{tab:matematika}{{\M@TitleReference {B.1}{P\IeC {\v r}\IeC {\'\i }klad tabulky}}{14}{Příklad tabulky}{table.B.1}{}}
\citation{iso690}
\@writefile{toc}{\contentsline {subsection}{\numberline {B.2.4}Literatura}{15}{subsection.B.2.4}\protected@file@percent }
\@writefile{toc}{\contentsline {subsection}{\numberline {B.2.5}Sazba URL}{15}{subsection.B.2.5}\protected@file@percent }
\@writefile{lof}{\addvspace {10pt}}
\@writefile{lot}{\addvspace {10pt}}
\@writefile{toc}{\contentsline {appendix}{\chapternumberline {C}Obsah p\IeC {\v r}ilo\IeC {\v z}en\IeC {\'e}ho CD}{17}{appendix.C}\protected@file@percent }
\newlabel{tab:was:used:in:doc}{{\M@TitleReference {C}{Obsah p\IeC {\v r}ilo\IeC {\v z}en\IeC {\'e}ho CD}}{17}{Obsah přiloženého CD}{appendix.C}{}}
\memsetcounter{lastsheet}{33}
\memsetcounter{lastpage}{17}
