\babel@toc {czech}{}
\babel@toc {czech}{}
\contentsline {subsection}{Odkaz na tuto pr{\' a}ci}{vi}{section*.1}% 
\contentsline {chapter}{{\' U}vod}{1}{chapter*.5}% 
\contentsline {chapter}{\chapternumberline {1}N\IeC {\v e}jak\IeC {\'a} kapitola}{3}{chapter.1}% 
\contentsline {section}{\numberline {1.1}N\IeC {\v e}jak\IeC {\'a} sekce}{3}{section.1.1}% 
\contentsline {chapter}{\chapternumberline {2}Dal\IeC {\v s}\IeC {\'\i } kapitola}{5}{chapter.2}% 
\contentsline {chapter}{Z{\' a}v{\v e}r}{7}{chapter*.6}% 
\contentsline {appendix}{\chapternumberline {A}Seznam pou\IeC {\v z}it\IeC {\'y}ch zkratek}{9}{appendix.A}% 
\contentsline {appendix}{\chapternumberline {B}N\IeC {\'a}vod k~pou\IeC {\v z}it\IeC {\'\i } t\IeC {\'e}to \IeC {\v s}ablony}{11}{appendix.B}% 
\contentsline {section}{\numberline {B.1}V\IeC {\'y}b\IeC {\v e}r z\IeC {\'a}kladu}{11}{section.B.1}% 
\contentsline {section}{\numberline {B.2}Pou\IeC {\v z}it\IeC {\'\i } \IeC {\v s}ablony}{12}{section.B.2}% 
\contentsline {subsection}{\numberline {B.2.1}Typografie}{12}{subsection.B.2.1}% 
\contentsline {subsection}{\numberline {B.2.2}Obr\IeC {\'a}zky}{12}{subsection.B.2.2}% 
\contentsline {subsubsection}{\numberline {B.2.2.1}Form\IeC {\'a}ty grafiky}{13}{subsubsection.B.2.2.1}% 
\contentsline {subsubsection}{\numberline {B.2.2.2}Z\IeC {\'\i }sk\IeC {\'a}n\IeC {\'\i } vhodn\IeC {\'e}ho form\IeC {\'a}tu}{13}{subsubsection.B.2.2.2}% 
\contentsline {subsubsection}{\numberline {B.2.2.3}Plovouc\IeC {\'\i } prost\IeC {\v r}ed\IeC {\'\i }}{13}{subsubsection.B.2.2.3}% 
\contentsline {subsubsection}{\numberline {B.2.2.4}Verze obr\IeC {\'a}zk\IeC {\r u}}{14}{subsubsection.B.2.2.4}% 
\contentsline {subsection}{\numberline {B.2.3}Tabulky}{14}{subsection.B.2.3}% 
\contentsline {subsection}{\numberline {B.2.4}Literatura}{15}{subsection.B.2.4}% 
\contentsline {subsection}{\numberline {B.2.5}Sazba URL}{15}{subsection.B.2.5}% 
\contentsline {appendix}{\chapternumberline {C}Obsah p\IeC {\v r}ilo\IeC {\v z}en\IeC {\'e}ho CD}{17}{appendix.C}% 
