\relax 
\providecommand\hyper@newdestlabel[2]{}
\providecommand*{\memsetcounter}[2]{}
\catcode `"\active 
\catcode `-\active 
\providecommand\HyperFirstAtBeginDocument{\AtBeginDocument}
\HyperFirstAtBeginDocument{\ifx\hyper@anchor\@undefined
\global\let\oldcontentsline\contentsline
\gdef\contentsline#1#2#3#4{\oldcontentsline{#1}{#2}{#3}}
\global\let\oldnewlabel\newlabel
\gdef\newlabel#1#2{\newlabelxx{#1}#2}
\gdef\newlabelxx#1#2#3#4#5#6{\oldnewlabel{#1}{{#2}{#3}}}
\AtEndDocument{\ifx\hyper@anchor\@undefined
\let\contentsline\oldcontentsline
\let\newlabel\oldnewlabel
\fi}
\fi}
\global\let\hyper@last\relax 
\gdef\HyperFirstAtBeginDocument#1{#1}
\providecommand\HyField@AuxAddToFields[1]{}
\providecommand\HyField@AuxAddToCoFields[2]{}
\providecommand\@newglossary[4]{}
\@newglossary{main}{glg}{gls}{glo}
\@newglossary{acronym}{alg}{acr}{acn}
\providecommand\@glsorder[1]{}
\providecommand\@istfilename[1]{}
\@istfilename{DP_Pavlas_Filip_2019.ist}
\@glsorder{word}
\babel@aux{czech}{}
\babel@aux{czech}{}
\@writefile{toc}{\contentsline {subsection}{Odkaz na tuto pr{\' a}ci}{vi}{section*.1}\protected@file@percent }
\@writefile{lof}{\addvspace {10pt}}
\@writefile{lot}{\addvspace {10pt}}
\@writefile{toc}{\contentsline {chapter}{{\' U}vod}{1}{chapter*.5}\protected@file@percent }
\@writefile{toc}{\contentsline {section}{C\IeC {\'\i }l pr\IeC {\'a}ce}{1}{section*.6}\protected@file@percent }
\citation{12}
\citation{13}
\citation{14}
\@writefile{lof}{\addvspace {10pt}}
\@writefile{lot}{\addvspace {10pt}}
\@writefile{toc}{\contentsline {chapter}{\chapternumberline {1}Metody generov\IeC {\'a}n\IeC {\'\i } model\IeC {\r u}}{3}{chapter.1}\protected@file@percent }
\@writefile{toc}{\contentsline {section}{\numberline {1.1}Generov\IeC {\'a}n\IeC {\'\i } s~omezen\IeC {\'\i }m}{3}{section.1.1}\protected@file@percent }
\@writefile{toc}{\contentsline {section}{\numberline {1.2}Generov\IeC {\'a}n\IeC {\'\i } bez omezen\IeC {\'\i }}{3}{section.1.2}\protected@file@percent }
\citation{09}
\citation{16}
\citation{17}
\citation{18}
\citation{13}
\citation{02}
\citation{02}
\citation{15}
\@writefile{lof}{\contentsline {figure}{\numberline {1.1}{\ignorespaces Render modelu SLAM metody vyu\IeC {\v z}\IeC {\'\i }vaj\IeC {\'\i }c\IeC {\'\i } LiDAR}}{5}{figure.1.1}\protected@file@percent }
\newlabel{G:SLAM}{{\M@TitleReference {1.1}{Render modelu SLAM metody vyu\IeC {\v z}\IeC {\'\i }vaj\IeC {\'\i }c\IeC {\'\i } LiDAR}}{5}{Render modelu SLAM metody využívající LiDAR}{figure.1.1}{}}
\citation{14}
\citation{41}
\citation{42}
\citation{43}
\citation{44}
\@writefile{lof}{\addvspace {10pt}}
\@writefile{lot}{\addvspace {10pt}}
\@writefile{toc}{\contentsline {chapter}{\chapternumberline {2}Vyu\IeC {\v z}it\IeC {\'\i } metod um\IeC {\v e}l\IeC {\'e} inteligence pro generov\IeC {\'a}n\IeC {\'\i } 3D model\IeC {\r u}}{7}{chapter.2}\protected@file@percent }
\@writefile{toc}{\contentsline {section}{\numberline {2.1}Metody prohled\IeC {\'a}v\IeC {\'a}n\IeC {\'\i } stavov\IeC {\'e}ho prostoru}{7}{section.2.1}\protected@file@percent }
\citation{hillClimbing}
\citation{simulatedAnnealing}
\@writefile{toc}{\contentsline {subsection}{\numberline {2.1.1}Gradientn\IeC {\'\i } algoritmus}{8}{subsection.2.1.1}\protected@file@percent }
\@writefile{toc}{\contentsline {subsection}{\numberline {2.1.2}Simulovan\IeC {\'e} \IeC {\v z}\IeC {\'\i }h\IeC {\'a}n\IeC {\'\i }}{8}{subsection.2.1.2}\protected@file@percent }
\@writefile{toc}{\contentsline {subsection}{\numberline {2.1.3}Genetick\IeC {\'y} algoritmus}{8}{subsection.2.1.3}\protected@file@percent }
\@writefile{lof}{\contentsline {figure}{\numberline {2.1}{\ignorespaces Sch\IeC {\'e}ma genetick\IeC {\'e}ho algoritmu}}{10}{figure.2.1}\protected@file@percent }
\newlabel{G:genAlgorithm}{{\M@TitleReference {2.1}{Sch\IeC {\'e}ma genetick\IeC {\'e}ho algoritmu}}{10}{Schéma genetického algoritmu}{figure.2.1}{}}
\citation{genAlg}
\citation{NN}
\newlabel{V:selectionP}{{2.1}{11}{Genetický algoritmus}{equation.2.1.1}{}}
\@writefile{toc}{\contentsline {section}{\numberline {2.2}Metody zpracov\IeC {\'a}n\IeC {\'\i } obrazu}{11}{section.2.2}\protected@file@percent }
\citation{NN}
\citation{NN}
\@writefile{lof}{\contentsline {figure}{\numberline {2.2}{\ignorespaces Princip evaluace a u\IeC {\v c}en\IeC {\'\i } jedin\IeC {\'e}ho perceptronu}}{12}{figure.2.2}\protected@file@percent }
\newlabel{G:perceptron}{{\M@TitleReference {2.2}{Princip evaluace a u\IeC {\v c}en\IeC {\'\i } jedin\IeC {\'e}ho perceptronu}}{12}{Princip evaluace a učení jediného perceptronu}{figure.2.2}{}}
\@writefile{toc}{\contentsline {subsection}{\numberline {2.2.1}Neuronov\IeC {\'e} s\IeC {\'\i }t\IeC {\v e}}{12}{subsection.2.2.1}\protected@file@percent }
\newlabel{V:perceptron}{{2.2}{12}{Neuronové sítě}{equation.2.2.2}{}}
\citation{45}
\citation{46}
\citation{47}
\@writefile{lof}{\contentsline {figure}{\numberline {2.3}{\ignorespaces Mo\IeC {\v z}n\IeC {\'a} struktura konvolu\IeC {\v c}n\IeC {\'\i } neuronov\IeC {\'e} s\IeC {\'\i }t\IeC {\v e} pro jednoduch\IeC {\'y} klasifik\IeC {\'a}tor}}{13}{figure.2.3}\protected@file@percent }
\newlabel{G:CNNSchema}{{\M@TitleReference {2.3}{Mo\IeC {\v z}n\IeC {\'a} struktura konvolu\IeC {\v c}n\IeC {\'\i } neuronov\IeC {\'e} s\IeC {\'\i }t\IeC {\v e} pro jednoduch\IeC {\'y} klasifik\IeC {\'a}tor}}{13}{Možná struktura konvoluční neuronové sítě pro jednoduchý klasifikátor}{figure.2.3}{}}
\@writefile{lof}{\addvspace {10pt}}
\@writefile{lot}{\addvspace {10pt}}
\@writefile{toc}{\contentsline {chapter}{\chapternumberline {3}Vstupn\IeC {\'\i } data}{15}{chapter.3}\protected@file@percent }
\newlabel{V:VideDefinition}{{3.3}{15}{Vstupní data}{equation.3.0.3}{}}
\@writefile{toc}{\contentsline {section}{\numberline {3.1}P\IeC {\v r}edzpracov\IeC {\'a}n\IeC {\'\i } dat}{15}{section.3.1}\protected@file@percent }
\citation{pinholeModelBook}
\citation{pinholeModel}
\citation{36}
\citation{34}
\citation{35}
\citation{35}
\citation{distModelsGitHub}
\citation{kalibrModelsGitHub}
\citation{35}
\citation{distModelsGitHub}
\citation{kalibrModelsGitHub}
\@writefile{lof}{\contentsline {figure}{\numberline {3.1}{\ignorespaces Projekce d\IeC {\'\i }rkov\IeC {\'e} kamery}}{16}{figure.3.1}\protected@file@percent }
\newlabel{G:PinholeCamera}{{\M@TitleReference {3.1}{Projekce d\IeC {\'\i }rkov\IeC {\'e} kamery}}{16}{Projekce dírkové kamery}{figure.3.1}{}}
\@writefile{toc}{\contentsline {subsection}{\numberline {3.1.1}Geometrick\IeC {\'a} korekce}{16}{subsection.3.1.1}\protected@file@percent }
\citation{pinholeModelBook}
\citation{pinholeModel}
\citation{36}
\citation{34}
\citation{35}
\citation{distModelsGitHub}
\citation{kalibrModelsGitHub}
\@writefile{lof}{\contentsline {figure}{\numberline {3.2}{\ignorespaces P\IeC {\v r}\IeC {\'\i }klad korekce radi\IeC {\'a}ln\IeC {\'\i }ho zkreslen\IeC {\'\i }}}{17}{figure.3.2}\protected@file@percent }
\newlabel{G:radialDistorsion}{{\M@TitleReference {3.2}{P\IeC {\v r}\IeC {\'\i }klad korekce radi\IeC {\'a}ln\IeC {\'\i }ho zkreslen\IeC {\'\i }}}{17}{Příklad korekce radiálního zkreslení}{figure.3.2}{}}
\newlabel{V:FOVModel}{{3.8}{17}{Geometrická korekce}{equation.3.1.8}{}}
\citation{37}
\citation{38}
\citation{awesomeDatasets}
\@writefile{lof}{\contentsline {figure}{\numberline {3.3}{\ignorespaces Fotometrick\IeC {\'a} kalibrace -- vin\IeC {\v e}ta}}{18}{figure.3.3}\protected@file@percent }
\newlabel{G:Vignette}{{\M@TitleReference {3.3}{Fotometrick\IeC {\'a} kalibrace -- vin\IeC {\v e}ta}}{18}{Fotometrická kalibrace -- viněta}{figure.3.3}{}}
\@writefile{toc}{\contentsline {subsection}{\numberline {3.1.2}Fotometrick\IeC {\'a} korekce}{18}{subsection.3.1.2}\protected@file@percent }
\citation{TUMDataset}
\@writefile{lof}{\contentsline {figure}{\numberline {3.4}{\ignorespaces Fotometrick\IeC {\'a} kalibrace -- gama}}{19}{figure.3.4}\protected@file@percent }
\newlabel{G:Vignette}{{\M@TitleReference {3.4}{Fotometrick\IeC {\'a} kalibrace -- gama}}{19}{Fotometrická kalibrace -- gama}{figure.3.4}{}}
\@writefile{toc}{\contentsline {section}{\numberline {3.2}Ve\IeC {\v r}ejn\IeC {\v e} dostupn\IeC {\'e} datasety}{19}{section.3.2}\protected@file@percent }
\@writefile{toc}{\contentsline {subsection}{\numberline {3.2.1}TUM dataset}{19}{subsection.3.2.1}\protected@file@percent }
\newlabel{L:Camera.txt}{{\M@TitleReference {3.1}{TUM dataset}}{19}{Formát souboru camera.txt}{lstlisting.3.1}{}}
\@writefile{lol}{\contentsline {lstlisting}{\numberline {3.1}Form\IeC {\'a}t souboru camera.txt}{19}{lstlisting.3.1}\protected@file@percent }
\citation{TUMDatasetFormat}
\citation{27}
\citation{dso}
\@writefile{lof}{\addvspace {10pt}}
\@writefile{lot}{\addvspace {10pt}}
\@writefile{toc}{\contentsline {chapter}{\chapternumberline {4}V\IeC {\'y}b\IeC {\v e}r metody}{21}{chapter.4}\protected@file@percent }
\@writefile{toc}{\contentsline {section}{\numberline {4.1}Shrnut\IeC {\'\i } metody}{21}{section.4.1}\protected@file@percent }
\@writefile{lof}{\contentsline {figure}{\numberline {4.1}{\ignorespaces Pr\IeC {\r u}chod d\IeC {\'\i }l\IeC {\v c}\IeC {\'\i }mi \IeC {\v c}\IeC {\'a}stmi DSO algoritmu}}{22}{figure.4.1}\protected@file@percent }
\newlabel{G:DsoDiagram}{{\M@TitleReference {4.1}{Pr\IeC {\r u}chod d\IeC {\'\i }l\IeC {\v c}\IeC {\'\i }mi \IeC {\v c}\IeC {\'a}stmi DSO algoritmu}}{22}{Průchod dílčími částmi DSO algoritmu}{figure.4.1}{}}
\@writefile{lof}{\contentsline {figure}{\numberline {4.2}{\ignorespaces V\IeC {\'y}po\IeC {\v c}et gradientu pro r\IeC {\r u}zn\IeC {\'e} velikosti sn\IeC {\'\i }mku}}{23}{figure.4.2}\protected@file@percent }
\newlabel{G:Gradient}{{\M@TitleReference {4.2}{V\IeC {\'y}po\IeC {\v c}et gradientu pro r\IeC {\r u}zn\IeC {\'e} velikosti sn\IeC {\'\i }mku}}{23}{Výpočet gradientu pro různé velikosti snímku}{figure.4.2}{}}
\@writefile{toc}{\contentsline {section}{\numberline {4.2}P\IeC {\v r}\IeC {\'\i }prava sn\IeC {\'\i }mku}{23}{section.4.2}\protected@file@percent }
\newlabel{S:FramePrepare}{{\M@TitleReference {4.2}{P\IeC {\v r}\IeC {\'\i }prava sn\IeC {\'\i }mku}}{23}{Příprava snímku}{section.4.2}{}}
\@writefile{toc}{\contentsline {section}{\numberline {4.3}Inicializace}{23}{section.4.3}\protected@file@percent }
\citation{27}
\@writefile{toc}{\contentsline {section}{\numberline {4.4}Ur\IeC {\v c}en\IeC {\'\i } pohybu kamery}{24}{section.4.4}\protected@file@percent }
\newlabel{S:CamMove}{{\M@TitleReference {4.4}{Ur\IeC {\v c}en\IeC {\'\i } pohybu kamery}}{24}{Určení pohybu kamery}{section.4.4}{}}
\citation{27}
\@writefile{toc}{\contentsline {section}{\numberline {4.5}Zpracov\IeC {\'a}n\IeC {\'\i } nekl\IeC {\'\i }\IeC {\v c}ov\IeC {\'e}ho sn\IeC {\'\i }mku}{25}{section.4.5}\protected@file@percent }
\newlabel{S:NotKeyFrame}{{\M@TitleReference {4.5}{Zpracov\IeC {\'a}n\IeC {\'\i } nekl\IeC {\'\i }\IeC {\v c}ov\IeC {\'e}ho sn\IeC {\'\i }mku}}{25}{Zpracování neklíčového snímku}{section.4.5}{}}
\@writefile{toc}{\contentsline {section}{\numberline {4.6}Zpracov\IeC {\'a}n\IeC {\'\i } kl\IeC {\'\i }\IeC {\v c}ov\IeC {\'e}ho sn\IeC {\'\i }mku a rekonstrukce sc\IeC {\'e}ny}{25}{section.4.6}\protected@file@percent }
\newlabel{S:KeyFrame}{{\M@TitleReference {4.6}{Zpracov\IeC {\'a}n\IeC {\'\i } kl\IeC {\'\i }\IeC {\v c}ov\IeC {\'e}ho sn\IeC {\'\i }mku a rekonstrukce sc\IeC {\'e}ny}}{25}{Zpracování klíčového snímku a rekonstrukce scény}{section.4.6}{}}
\@writefile{lof}{\addvspace {10pt}}
\@writefile{lot}{\addvspace {10pt}}
\@writefile{toc}{\contentsline {chapter}{\chapternumberline {5}Mo\IeC {\v z}nosti vyu\IeC {\v z}it\IeC {\'\i } metod um\IeC {\v e}l\IeC {\'e} inteligence ve zvolen\IeC {\'e} metod\IeC {\v e}}{27}{chapter.5}\protected@file@percent }
\@writefile{toc}{\contentsline {section}{\numberline {5.1}Minimalizace fotometrick\IeC {\'e} chyby}{27}{section.5.1}\protected@file@percent }
\newlabel{V:Newton}{{5.1}{28}{Minimalizace fotometrické chyby}{equation.5.1.1}{}}
\newlabel{V:GausNewton}{{5.2}{28}{Minimalizace fotometrické chyby}{equation.5.1.2}{}}
\newlabel{V:GausNewtonStepSize}{{5.3}{28}{Minimalizace fotometrické chyby}{equation.5.1.3}{}}
\@writefile{lof}{\contentsline {figure}{\numberline {5.1}{\ignorespaces Uk\IeC {\'a}zka vstupu a v\IeC {\'y}stupu gener\IeC {\'a}toru mapy kandid\IeC {\'a}tn\IeC {\'\i }ch bod\IeC {\r u}}}{29}{figure.5.1}\protected@file@percent }
\newlabel{G:PointsMap}{{\M@TitleReference {5.1}{Uk\IeC {\'a}zka vstupu a v\IeC {\'y}stupu gener\IeC {\'a}toru mapy kandid\IeC {\'a}tn\IeC {\'\i }ch bod\IeC {\r u}}}{29}{Ukázka vstupu a výstupu generátoru mapy kandidátních bodů}{figure.5.1}{}}
\@writefile{toc}{\contentsline {section}{\numberline {5.2}Generov\IeC {\'a}n\IeC {\'\i } bod\IeC {\r u} z\IeC {\'a}jmu}{30}{section.5.2}\protected@file@percent }
\@writefile{lof}{\contentsline {figure}{\numberline {5.2}{\ignorespaces RELU aktiva\IeC {\v c}n\IeC {\'\i } funkce}}{31}{figure.5.2}\protected@file@percent }
\newlabel{G:ReluFce}{{\M@TitleReference {5.2}{RELU aktiva\IeC {\v c}n\IeC {\'\i } funkce}}{31}{RELU aktivační funkce}{figure.5.2}{}}
\@writefile{lof}{\contentsline {figure}{\numberline {5.3}{\ignorespaces Uspo\IeC {\v r}\IeC {\'a}d\IeC {\'a}n\IeC {\'\i } vrstev neuronov\IeC {\'e} s\IeC {\'\i }t\IeC {\v e}}}{32}{figure.5.3}\protected@file@percent }
\newlabel{G:Architecture}{{\M@TitleReference {5.3}{Uspo\IeC {\v r}\IeC {\'a}d\IeC {\'a}n\IeC {\'\i } vrstev neuronov\IeC {\'e} s\IeC {\'\i }t\IeC {\v e}}}{32}{Uspořádání vrstev neuronové sítě}{figure.5.3}{}}
\newlabel{V:ReLU}{{5.5}{32}{Generování bodů zájmu}{equation.5.2.5}{}}
\newlabel{V:ReLUS}{{5.6}{32}{Generování bodů zájmu}{equation.5.2.6}{}}
\newlabel{V:ReLUL}{{5.7}{32}{Generování bodů zájmu}{equation.5.2.7}{}}
\newlabel{V:diffLoss}{{5.9}{33}{Generování bodů zájmu}{equation.5.2.9}{}}
\newlabel{V:whiteLoss}{{5.10}{33}{Generování bodů zájmu}{equation.5.2.10}{}}
\@writefile{lof}{\addvspace {10pt}}
\@writefile{lot}{\addvspace {10pt}}
\@writefile{toc}{\contentsline {chapter}{\chapternumberline {6}Implementace}{35}{chapter.6}\protected@file@percent }
\@writefile{toc}{\contentsline {section}{\numberline {6.1}Pou\IeC {\v z}it\IeC {\'e} technologie}{35}{section.6.1}\protected@file@percent }
\citation{libsJson}
\citation{libsHelixToolkit}
\citation{libsCNTK}
\@writefile{toc}{\contentsline {section}{\numberline {6.2}Pou\IeC {\v z}it\IeC {\'e} knihovny}{36}{section.6.2}\protected@file@percent }
\@writefile{toc}{\contentsline {subsection}{\numberline {6.2.1}Newtonsoft.Json}{36}{subsection.6.2.1}\protected@file@percent }
\@writefile{toc}{\contentsline {subsection}{\numberline {6.2.2}System.Drawing.Common}{36}{subsection.6.2.2}\protected@file@percent }
\@writefile{toc}{\contentsline {subsection}{\numberline {6.2.3}HelixToolkit.Wpf}{36}{subsection.6.2.3}\protected@file@percent }
\citation{libsSCKDTree}
\citation{libsEigen}
\citation{libsSophus}
\@writefile{toc}{\contentsline {subsection}{\numberline {6.2.4}CNTK.CPUOnly}{37}{subsection.6.2.4}\protected@file@percent }
\@writefile{toc}{\contentsline {subsection}{\numberline {6.2.5}Supercluster.KDTree}{37}{subsection.6.2.5}\protected@file@percent }
\@writefile{toc}{\contentsline {subsection}{\numberline {6.2.6}Eigen}{37}{subsection.6.2.6}\protected@file@percent }
\@writefile{toc}{\contentsline {subsection}{\numberline {6.2.7}Sophus}{37}{subsection.6.2.7}\protected@file@percent }
\@writefile{toc}{\contentsline {section}{\numberline {6.3}P\IeC {\v r}enositelnost}{37}{section.6.3}\protected@file@percent }
\@writefile{toc}{\contentsline {section}{\numberline {6.4}Struktura}{38}{section.6.4}\protected@file@percent }
\@writefile{lof}{\contentsline {figure}{\numberline {6.1}{\ignorespaces N\IeC {\'a}hled WPF prohl\IeC {\'\i }\IeC {\v z}e\IeC {\v c}e}}{39}{figure.6.1}\protected@file@percent }
\newlabel{G:wpfgui}{{\M@TitleReference {6.1}{N\IeC {\'a}hled WPF prohl\IeC {\'\i }\IeC {\v z}e\IeC {\v c}e}}{39}{Náhled WPF prohlížeče}{figure.6.1}{}}
\@writefile{toc}{\contentsline {section}{\numberline {6.5}Mo\IeC {\v z}nosti kompilace}{40}{section.6.5}\protected@file@percent }
\@writefile{lof}{\addvspace {10pt}}
\@writefile{lot}{\addvspace {10pt}}
\@writefile{toc}{\contentsline {chapter}{\chapternumberline {7}V\IeC {\'y}sledky}{41}{chapter.7}\protected@file@percent }
\@writefile{toc}{\contentsline {section}{\numberline {7.1}Implementace metody}{41}{section.7.1}\protected@file@percent }
\@writefile{toc}{\contentsline {subsection}{\numberline {7.1.1}P\IeC {\v r}edzpracov\IeC {\'a}n\IeC {\'\i } obrazu}{41}{subsection.7.1.1}\protected@file@percent }
\@writefile{lof}{\contentsline {figure}{\numberline {7.1}{\ignorespaces Uk\IeC {\'a}zka p\IeC {\v r}edzpracov\IeC {\'a}n\IeC {\'\i } sn\IeC {\'\i }mku. Zleva: origin\IeC {\'a}ln\IeC {\'\i } sn\IeC {\'\i }mek, sn\IeC {\'\i }mek p\IeC {\v r}edzpracovan\IeC {\'y} p\IeC {\r u}vodn\IeC {\'\i } metodou, sn\IeC {\'\i }mek p\IeC {\v r}edzpracovan\IeC {\'y} novou implementac\IeC {\'\i }.}}{42}{figure.7.1}\protected@file@percent }
\newlabel{G:PreprocessingComapre}{{\M@TitleReference {7.1}{Uk\IeC {\'a}zka p\IeC {\v r}edzpracov\IeC {\'a}n\IeC {\'\i } sn\IeC {\'\i }mku. Zleva: origin\IeC {\'a}ln\IeC {\'\i } sn\IeC {\'\i }mek, sn\IeC {\'\i }mek p\IeC {\v r}edzpracovan\IeC {\'y} p\IeC {\r u}vodn\IeC {\'\i } metodou, sn\IeC {\'\i }mek p\IeC {\v r}edzpracovan\IeC {\'y} novou implementac\IeC {\'\i }.}}{42}{Ukázka předzpracování snímku. Zleva: originální snímek, snímek předzpracovaný původní metodou, snímek předzpracovaný novou implementací}{figure.7.1}{}}
\@writefile{toc}{\contentsline {subsection}{\numberline {7.1.2}V\IeC {\'y}stupn\IeC {\'\i } vrstva}{42}{subsection.7.1.2}\protected@file@percent }
\@writefile{toc}{\contentsline {subsection}{\numberline {7.1.3}Kvalitativn\IeC {\'\i } vlastnosti j\IeC {\'a}dra metody}{42}{subsection.7.1.3}\protected@file@percent }
\@writefile{lot}{\contentsline {table}{\numberline {7.1}{\ignorespaces Doba zpracov\IeC {\'a}n\IeC {\'\i } r\IeC {\r u}zn\IeC {\'y}ch sekvenc\IeC {\'\i } sn\IeC {\'\i }mk\IeC {\r u}}}{43}{table.7.1}\protected@file@percent }
\newlabel{tab:addlabel}{{\M@TitleReference {7.1}{Doba zpracov\IeC {\'a}n\IeC {\'\i } r\IeC {\r u}zn\IeC {\'y}ch sekvenc\IeC {\'\i } sn\IeC {\'\i }mk\IeC {\r u}}}{43}{Doba zpracování různých sekvencí snímků}{table.7.1}{}}
\@writefile{lof}{\contentsline {figure}{\numberline {7.2}{\ignorespaces Pr\IeC {\r u}b\IeC {\v e}h minimalizace fotometrick\IeC {\'e} chyby pomoc\IeC {\'\i } genetick\IeC {\'e}ho algoritmu, sn\IeC {\'\i }mek 01:1325}}{44}{figure.7.2}\protected@file@percent }
\newlabel{G:GALearning}{{\M@TitleReference {7.2}{Pr\IeC {\r u}b\IeC {\v e}h minimalizace fotometrick\IeC {\'e} chyby pomoc\IeC {\'\i } genetick\IeC {\'e}ho algoritmu, sn\IeC {\'\i }mek 01:1325}}{44}{Průběh minimalizace fotometrické chyby pomocí genetického algoritmu, snímek 01:1325}{figure.7.2}{}}
\@writefile{toc}{\contentsline {section}{\numberline {7.2}Minimalizace fotometrick\IeC {\'e} chyby}{44}{section.7.2}\protected@file@percent }
\@writefile{lof}{\contentsline {figure}{\numberline {7.3}{\ignorespaces Porovn\IeC {\'a}n\IeC {\'\i } v\IeC {\'y}stupu neuronov\IeC {\'e} s\IeC {\'\i }t\IeC {\v e} (vpravo) s~po\IeC {\v z}adovan\IeC {\'y}m v\IeC {\'y}stupem (uprost\IeC {\v r}ed) a vstupn\IeC {\'\i }m sn\IeC {\'\i }mkem (vlevo)}}{45}{figure.7.3}\protected@file@percent }
\newlabel{G:PinholeCamera}{{\M@TitleReference {7.3}{Porovn\IeC {\'a}n\IeC {\'\i } v\IeC {\'y}stupu neuronov\IeC {\'e} s\IeC {\'\i }t\IeC {\v e} (vpravo) s~po\IeC {\v z}adovan\IeC {\'y}m v\IeC {\'y}stupem (uprost\IeC {\v r}ed) a vstupn\IeC {\'\i }m sn\IeC {\'\i }mkem (vlevo)}}{45}{Porovnání výstupu neuronové sítě (vpravo) s~požadovaným výstupem (uprostřed) a vstupním snímkem (vlevo)}{figure.7.3}{}}
\@writefile{toc}{\contentsline {section}{\numberline {7.3}Generov\IeC {\'a}n\IeC {\'\i } bod\IeC {\r u} z\IeC {\'a}jmu}{45}{section.7.3}\protected@file@percent }
\@writefile{lof}{\contentsline {figure}{\numberline {7.4}{\ignorespaces Model po\IeC {\v r}\IeC {\'\i }zen\IeC {\'y} od sn\IeC {\'\i }mku 01:1300 zobrazen\IeC {\'y} ve virtu\IeC {\'a}ln\IeC {\'\i } realit\IeC {\v e}}}{46}{figure.7.4}\protected@file@percent }
\newlabel{G:Export}{{\M@TitleReference {7.4}{Model po\IeC {\v r}\IeC {\'\i }zen\IeC {\'y} od sn\IeC {\'\i }mku 01:1300 zobrazen\IeC {\'y} ve virtu\IeC {\'a}ln\IeC {\'\i } realit\IeC {\v e}}}{46}{Model pořízený od snímku 01:1300 zobrazený ve virtuální realitě}{figure.7.4}{}}
\@writefile{toc}{\contentsline {section}{\numberline {7.4}Export modelu a ov\IeC {\v e}\IeC {\v r}en\IeC {\'\i } jeho spr\IeC {\'a}vnosti}{46}{section.7.4}\protected@file@percent }
\@writefile{lof}{\contentsline {figure}{\numberline {7.5}{\ignorespaces Nazna\IeC {\v c}en\IeC {\'\i } konceptu segmentace}}{47}{figure.7.5}\protected@file@percent }
\newlabel{G:SegmentationConcept}{{\M@TitleReference {7.5}{Nazna\IeC {\v c}en\IeC {\'\i } konceptu segmentace}}{47}{Naznačení konceptu segmentace}{figure.7.5}{}}
\@writefile{lof}{\addvspace {10pt}}
\@writefile{lot}{\addvspace {10pt}}
\@writefile{toc}{\contentsline {chapter}{Z{\' a}v{\v e}r}{49}{chapter*.7}\protected@file@percent }
\bibstyle{base/bib_csn690}
\bibdata{09_Bibliografie}
\bibcite{12}{1}
\bibcite{13}{2}
\bibcite{14}{3}
\bibcite{09}{4}
\bibcite{16}{5}
\bibcite{17}{6}
\bibcite{18}{7}
\@writefile{toc}{\contentsline {chapter}{Literatura}{51}{chapter*.8}\protected@file@percent }
\bibcite{02}{8}
\bibcite{15}{9}
\bibcite{41}{10}
\bibcite{42}{11}
\bibcite{43}{12}
\bibcite{44}{13}
\bibcite{hillClimbing}{14}
\bibcite{simulatedAnnealing}{15}
\bibcite{genAlg}{16}
\bibcite{NN}{17}
\bibcite{45}{18}
\bibcite{46}{19}
\bibcite{47}{20}
\bibcite{pinholeModelBook}{21}
\bibcite{pinholeModel}{22}
\bibcite{36}{23}
\bibcite{34}{24}
\bibcite{35}{25}
\bibcite{distModelsGitHub}{26}
\bibcite{kalibrModelsGitHub}{27}
\bibcite{37}{28}
\bibcite{38}{29}
\bibcite{awesomeDatasets}{30}
\bibcite{TUMDataset}{31}
\bibcite{TUMDatasetFormat}{32}
\bibcite{27}{33}
\bibcite{dso}{34}
\bibcite{libsJson}{35}
\bibcite{libsHelixToolkit}{36}
\bibcite{libsCNTK}{37}
\bibcite{libsSCKDTree}{38}
\bibcite{libsEigen}{39}
\bibcite{libsSophus}{40}
\@writefile{lof}{\addvspace {10pt}}
\@writefile{lot}{\addvspace {10pt}}
\@writefile{toc}{\contentsline {appendix}{\chapternumberline {A}Seznam pou{\v z}it{\' y}ch zkratek}{55}{appendix.A}\protected@file@percent }
\newlabel{acronym}{{\M@TitleReference {A}{Seznam pou{\v z}it{\' y}ch zkratek}}{55}{\glossarytitle }{appendix.A}{}}
\@writefile{lof}{\addvspace {10pt}}
\@writefile{lot}{\addvspace {10pt}}
\@writefile{toc}{\contentsline {appendix}{\chapternumberline {B}Porovn\IeC {\'a}n\IeC {\'\i } s~origin\IeC {\'a}ln\IeC {\'\i } implementac\IeC {\'\i }}{57}{appendix.B}\protected@file@percent }
\newlabel{A:S:Compare}{{\M@TitleReference {B}{Porovn\IeC {\'a}n\IeC {\'\i } s~origin\IeC {\'a}ln\IeC {\'\i } implementac\IeC {\'\i }}}{57}{Porovnání s~originální implementací}{appendix.B}{}}
\@writefile{lof}{\contentsline {figure}{\numberline {B.1}{\ignorespaces Porovn\IeC {\'a}n\IeC {\'\i } v\IeC {\'y}sledn\IeC {\'e}ho modelu -- p\IeC {\r u}vodn\IeC {\'\i } (dole) a nov\IeC {\'e} (naho\IeC {\v r}e) implementace}}{58}{figure.B.1}\protected@file@percent }
\newlabel{A:G:Compare}{{\M@TitleReference {B.1}{Porovn\IeC {\'a}n\IeC {\'\i } v\IeC {\'y}sledn\IeC {\'e}ho modelu -- p\IeC {\r u}vodn\IeC {\'\i } (dole) a nov\IeC {\'e} (naho\IeC {\v r}e) implementace}}{58}{Porovnání výsledného modelu -- původní (dole) a nové (nahoře) implementace}{figure.B.1}{}}
\newlabel{RF1}{59}
\@writefile{lof}{\contentsline {figure}{\numberline {B.2}{\ignorespaces Hloubkov\IeC {\'e} ohodnocen\IeC {\'\i } bod\IeC {\r u} kl\IeC {\'\i }\IeC {\v c}ov\IeC {\'y}ch sn\IeC {\'\i }mk\IeC {\r u} -- p\IeC {\r u}vodn\IeC {\'\i } (dole) a nov\IeC {\'a} (naho\IeC {\v r}e) implementace}}{59}{figure.B.2}\protected@file@percent }
\newlabel{A:G:Predicted}{{\M@TitleReference {B.2}{Hloubkov\IeC {\'e} ohodnocen\IeC {\'\i } bod\IeC {\r u} kl\IeC {\'\i }\IeC {\v c}ov\IeC {\'y}ch sn\IeC {\'\i }mk\IeC {\r u} -- p\IeC {\r u}vodn\IeC {\'\i } (dole) a nov\IeC {\'a} (naho\IeC {\v r}e) implementace}}{59}{Hloubkové ohodnocení bodů klíčových snímků -- původní (dole) a nová (nahoře) implementace}{figure.B.2}{}}
\@writefile{lot}{\contentsline {table}{\numberline {B.1}{\ignorespaces Uk\IeC {\'a}zka p\IeC {\v r}edzpracov\IeC {\'a}n\IeC {\'\i } sn\IeC {\'\i }mk\IeC {\r u}}}{60}{table.B.1}\protected@file@percent }
\newlabel{A:T:Preprocessing}{{\M@TitleReference {B.1}{Uk\IeC {\'a}zka p\IeC {\v r}edzpracov\IeC {\'a}n\IeC {\'\i } sn\IeC {\'\i }mk\IeC {\r u}}}{60}{Ukázka předzpracování snímků}{table.B.1}{}}
\@writefile{lof}{\addvspace {10pt}}
\@writefile{lot}{\addvspace {10pt}}
\@writefile{toc}{\contentsline {appendix}{\chapternumberline {C}Minimalizace fotometrick\IeC {\'e} chyby}{61}{appendix.C}\protected@file@percent }
\newlabel{A:S:ErrorMin}{{\M@TitleReference {C}{Minimalizace fotometrick\IeC {\'e} chyby}}{61}{Minimalizace fotometrické chyby}{appendix.C}{}}
\newlabel{RF2}{62}
\@writefile{lot}{\contentsline {table}{\numberline {C.1}{\ignorespaces Kontext m\IeC {\v e}\IeC {\v r}en\IeC {\'y}ch sn\IeC {\'\i }mk\IeC {\r u}}}{62}{table.C.1}\protected@file@percent }
\newlabel{A:T:GAContext}{{\M@TitleReference {C.1}{Kontext m\IeC {\v e}\IeC {\v r}en\IeC {\'y}ch sn\IeC {\'\i }mk\IeC {\r u}}}{62}{Kontext měřených snímků}{table.C.1}{}}
\@writefile{lof}{\contentsline {figure}{\numberline {C.1}{\ignorespaces Stavov\IeC {\'y} prostor v~okol\IeC {\'\i } odhadovan\IeC {\'e} pozice, sn\IeC {\'\i }mek 01:222, Translace}}{63}{figure.C.1}\protected@file@percent }
\newlabel{A:G:GAS222T}{{\M@TitleReference {C.1}{Stavov\IeC {\'y} prostor v~okol\IeC {\'\i } odhadovan\IeC {\'e} pozice, sn\IeC {\'\i }mek 01:222, Translace}}{63}{Stavový prostor v~okolí odhadované pozice, snímek 01:222, Translace}{figure.C.1}{}}
\@writefile{lof}{\contentsline {figure}{\numberline {C.2}{\ignorespaces Stavov\IeC {\'y} prostor v~okol\IeC {\'\i } odhadovan\IeC {\'e} pozice, sn\IeC {\'\i }mek 01:222, Rotace}}{63}{figure.C.2}\protected@file@percent }
\newlabel{A:G:GAS222R}{{\M@TitleReference {C.2}{Stavov\IeC {\'y} prostor v~okol\IeC {\'\i } odhadovan\IeC {\'e} pozice, sn\IeC {\'\i }mek 01:222, Rotace}}{63}{Stavový prostor v~okolí odhadované pozice, snímek 01:222, Rotace}{figure.C.2}{}}
\@writefile{lof}{\contentsline {figure}{\numberline {C.3}{\ignorespaces Minimalizace fotometrick\IeC {\'e} chyby, sn\IeC {\'\i }mek 01:222, GA}}{64}{figure.C.3}\protected@file@percent }
\newlabel{A:G:GA222Gen}{{\M@TitleReference {C.3}{Minimalizace fotometrick\IeC {\'e} chyby, sn\IeC {\'\i }mek 01:222, GA}}{64}{Minimalizace fotometrické chyby, snímek 01:222, GA}{figure.C.3}{}}
\@writefile{lof}{\contentsline {figure}{\numberline {C.4}{\ignorespaces Minimalizace fotometrick\IeC {\'e} chyby, sn\IeC {\'\i }mek 01:222, origin\IeC {\'a}l}}{64}{figure.C.4}\protected@file@percent }
\newlabel{A:G:GA222}{{\M@TitleReference {C.4}{Minimalizace fotometrick\IeC {\'e} chyby, sn\IeC {\'\i }mek 01:222, origin\IeC {\'a}l}}{64}{Minimalizace fotometrické chyby, snímek 01:222, originál}{figure.C.4}{}}
\@writefile{lof}{\contentsline {figure}{\numberline {C.5}{\ignorespaces Stavov\IeC {\'y} prostor v~okol\IeC {\'\i } odhadovan\IeC {\'e} pozice, sn\IeC {\'\i }mek 01:1325, Translace}}{65}{figure.C.5}\protected@file@percent }
\newlabel{A:G:GAS1325T}{{\M@TitleReference {C.5}{Stavov\IeC {\'y} prostor v~okol\IeC {\'\i } odhadovan\IeC {\'e} pozice, sn\IeC {\'\i }mek 01:1325, Translace}}{65}{Stavový prostor v~okolí odhadované pozice, snímek 01:1325, Translace}{figure.C.5}{}}
\@writefile{lof}{\contentsline {figure}{\numberline {C.6}{\ignorespaces Stavov\IeC {\'y} prostor v~okol\IeC {\'\i } odhadovan\IeC {\'e} pozice, sn\IeC {\'\i }mek 01:1325, Rotace}}{65}{figure.C.6}\protected@file@percent }
\newlabel{A:G:GAS1325R}{{\M@TitleReference {C.6}{Stavov\IeC {\'y} prostor v~okol\IeC {\'\i } odhadovan\IeC {\'e} pozice, sn\IeC {\'\i }mek 01:1325, Rotace}}{65}{Stavový prostor v~okolí odhadované pozice, snímek 01:1325, Rotace}{figure.C.6}{}}
\@writefile{lof}{\contentsline {figure}{\numberline {C.7}{\ignorespaces Minimalizace fotometrick\IeC {\'e} chyby, sn\IeC {\'\i }mek 01:1325, GA}}{66}{figure.C.7}\protected@file@percent }
\newlabel{A:G:GA1325Gen}{{\M@TitleReference {C.7}{Minimalizace fotometrick\IeC {\'e} chyby, sn\IeC {\'\i }mek 01:1325, GA}}{66}{Minimalizace fotometrické chyby, snímek 01:1325, GA}{figure.C.7}{}}
\@writefile{lof}{\contentsline {figure}{\numberline {C.8}{\ignorespaces Minimalizace fotometrick\IeC {\'e} chyby, sn\IeC {\'\i }mek 01:1325, origin\IeC {\'a}l}}{66}{figure.C.8}\protected@file@percent }
\newlabel{A:G:GA1325}{{\M@TitleReference {C.8}{Minimalizace fotometrick\IeC {\'e} chyby, sn\IeC {\'\i }mek 01:1325, origin\IeC {\'a}l}}{66}{Minimalizace fotometrické chyby, snímek 01:1325, originál}{figure.C.8}{}}
\@writefile{lof}{\contentsline {figure}{\numberline {C.9}{\ignorespaces Stavov\IeC {\'y} prostor v~okol\IeC {\'\i } odhadovan\IeC {\'e} pozice, sn\IeC {\'\i }mek 25:890, Translace}}{67}{figure.C.9}\protected@file@percent }
\newlabel{A:G:GAS890T}{{\M@TitleReference {C.9}{Stavov\IeC {\'y} prostor v~okol\IeC {\'\i } odhadovan\IeC {\'e} pozice, sn\IeC {\'\i }mek 25:890, Translace}}{67}{Stavový prostor v~okolí odhadované pozice, snímek 25:890, Translace}{figure.C.9}{}}
\@writefile{lof}{\contentsline {figure}{\numberline {C.10}{\ignorespaces Stavov\IeC {\'y} prostor v~okol\IeC {\'\i } odhadovan\IeC {\'e} pozice, sn\IeC {\'\i }mek 25:890, Rotace}}{67}{figure.C.10}\protected@file@percent }
\newlabel{A:G:GAS890R}{{\M@TitleReference {C.10}{Stavov\IeC {\'y} prostor v~okol\IeC {\'\i } odhadovan\IeC {\'e} pozice, sn\IeC {\'\i }mek 25:890, Rotace}}{67}{Stavový prostor v~okolí odhadované pozice, snímek 25:890, Rotace}{figure.C.10}{}}
\@writefile{lof}{\contentsline {figure}{\numberline {C.11}{\ignorespaces Minimalizace fotometrick\IeC {\'e} chyby, sn\IeC {\'\i }mek 25:890, GA}}{68}{figure.C.11}\protected@file@percent }
\newlabel{A:G:GA890Gen}{{\M@TitleReference {C.11}{Minimalizace fotometrick\IeC {\'e} chyby, sn\IeC {\'\i }mek 25:890, GA}}{68}{Minimalizace fotometrické chyby, snímek 25:890, GA}{figure.C.11}{}}
\@writefile{lof}{\contentsline {figure}{\numberline {C.12}{\ignorespaces Minimalizace fotometrick\IeC {\'e} chyby, sn\IeC {\'\i }mek 25:890, origin\IeC {\'a}l}}{68}{figure.C.12}\protected@file@percent }
\newlabel{A:G:GA890}{{\M@TitleReference {C.12}{Minimalizace fotometrick\IeC {\'e} chyby, sn\IeC {\'\i }mek 25:890, origin\IeC {\'a}l}}{68}{Minimalizace fotometrické chyby, snímek 25:890, originál}{figure.C.12}{}}
\@writefile{lof}{\addvspace {10pt}}
\@writefile{lot}{\addvspace {10pt}}
\@writefile{toc}{\contentsline {appendix}{\chapternumberline {D}Generov\IeC {\'a}n\IeC {\'\i } bod\IeC {\r u} z\IeC {\'a}jmu}{69}{appendix.D}\protected@file@percent }
\newlabel{A:S:Points}{{\M@TitleReference {D}{Generov\IeC {\'a}n\IeC {\'\i } bod\IeC {\r u} z\IeC {\'a}jmu}}{69}{Generování bodů zájmu}{appendix.D}{}}
\newlabel{RF3}{70}
\@writefile{lof}{\contentsline {figure}{\numberline {D.1}{\ignorespaces Porovn\IeC {\'a}n\IeC {\'\i } doby zpracov\IeC {\'a}n\IeC {\'\i } sn\IeC {\'\i }mku origin\IeC {\'a}ln\IeC {\'\i } metodou a neuronovou s\IeC {\'\i }t\IeC {\'\i }}}{70}{figure.D.1}\protected@file@percent }
\newlabel{A:G:PointsTiming}{{\M@TitleReference {D.1}{Porovn\IeC {\'a}n\IeC {\'\i } doby zpracov\IeC {\'a}n\IeC {\'\i } sn\IeC {\'\i }mku origin\IeC {\'a}ln\IeC {\'\i } metodou a neuronovou s\IeC {\'\i }t\IeC {\'\i }}}{70}{Porovnání doby zpracování snímku originální metodou a neuronovou sítí}{figure.D.1}{}}
\@writefile{lot}{\contentsline {table}{\numberline {D.1}{\ignorespaces Prvn\IeC {\'\i } uk\IeC {\'a}zka v\IeC {\'y}stup\IeC {\r u} neuronov\IeC {\'e} s\IeC {\'\i }t\IeC {\v e}}}{71}{table.D.1}\protected@file@percent }
\newlabel{A:T:NNResults}{{\M@TitleReference {D.1}{Prvn\IeC {\'\i } uk\IeC {\'a}zka v\IeC {\'y}stup\IeC {\r u} neuronov\IeC {\'e} s\IeC {\'\i }t\IeC {\v e}}}{71}{První ukázka výstupů neuronové sítě}{table.D.1}{}}
\@writefile{lot}{\contentsline {table}{\numberline {D.2}{\ignorespaces Druh\IeC {\'a} uk\IeC {\'a}zka v\IeC {\'y}stup\IeC {\r u} neuronov\IeC {\'e} s\IeC {\'\i }t\IeC {\v e} 2}}{72}{table.D.2}\protected@file@percent }
\newlabel{A:T:NNResults1}{{\M@TitleReference {D.2}{Druh\IeC {\'a} uk\IeC {\'a}zka v\IeC {\'y}stup\IeC {\r u} neuronov\IeC {\'e} s\IeC {\'\i }t\IeC {\v e} 2}}{72}{Druhá ukázka výstupů neuronové sítě 2}{table.D.2}{}}
\@writefile{lof}{\addvspace {10pt}}
\@writefile{lot}{\addvspace {10pt}}
\@writefile{toc}{\contentsline {appendix}{\chapternumberline {E}Export model\IeC {\r u} do virtu\IeC {\'a}ln\IeC {\'\i } reality}{73}{appendix.E}\protected@file@percent }
\newlabel{A:S:Export}{{\M@TitleReference {E}{Export model\IeC {\r u} do virtu\IeC {\'a}ln\IeC {\'\i } reality}}{73}{Export modelů do virtuální reality}{appendix.E}{}}
\@writefile{lof}{\contentsline {figure}{\numberline {E.1}{\ignorespaces Model po\IeC {\v r}\IeC {\'\i }zen\IeC {\'y} od sn\IeC {\'\i }mku 01:200 ve virtu\IeC {\'a}ln\IeC {\'\i } realit\IeC {\v e}}}{74}{figure.E.1}\protected@file@percent }
\newlabel{A:G:VR1}{{\M@TitleReference {E.1}{Model po\IeC {\v r}\IeC {\'\i }zen\IeC {\'y} od sn\IeC {\'\i }mku 01:200 ve virtu\IeC {\'a}ln\IeC {\'\i } realit\IeC {\v e}}}{74}{Model pořízený od snímku 01:200 ve virtuální realitě}{figure.E.1}{}}
\@writefile{lof}{\contentsline {figure}{\numberline {E.2}{\ignorespaces Model po\IeC {\v r}\IeC {\'\i }zen\IeC {\'y} od sn\IeC {\'\i }mku 25:700 ve virtu\IeC {\'a}ln\IeC {\'\i } realit\IeC {\v e}, pohled 1}}{74}{figure.E.2}\protected@file@percent }
\newlabel{A:G:VR2}{{\M@TitleReference {E.2}{Model po\IeC {\v r}\IeC {\'\i }zen\IeC {\'y} od sn\IeC {\'\i }mku 25:700 ve virtu\IeC {\'a}ln\IeC {\'\i } realit\IeC {\v e}, pohled 1}}{74}{Model pořízený od snímku 25:700 ve virtuální realitě, pohled 1}{figure.E.2}{}}
\@writefile{lof}{\contentsline {figure}{\numberline {E.3}{\ignorespaces Model po\IeC {\v r}\IeC {\'\i }zen\IeC {\'y} od sn\IeC {\'\i }mku 25:200 ve virtu\IeC {\'a}ln\IeC {\'\i } realit\IeC {\v e}, pohled 2}}{74}{figure.E.3}\protected@file@percent }
\newlabel{A:G:VR3}{{\M@TitleReference {E.3}{Model po\IeC {\v r}\IeC {\'\i }zen\IeC {\'y} od sn\IeC {\'\i }mku 25:200 ve virtu\IeC {\'a}ln\IeC {\'\i } realit\IeC {\v e}, pohled 2}}{74}{Model pořízený od snímku 25:200 ve virtuální realitě, pohled 2}{figure.E.3}{}}
\@writefile{lof}{\contentsline {figure}{\numberline {E.4}{\ignorespaces Model po\IeC {\v r}\IeC {\'\i }zen\IeC {\'y} od sn\IeC {\'\i }mku 01:1300 ve virtu\IeC {\'a}ln\IeC {\'\i } realit\IeC {\v e}, pohled 1}}{75}{figure.E.4}\protected@file@percent }
\newlabel{A:G:VR4}{{\M@TitleReference {E.4}{Model po\IeC {\v r}\IeC {\'\i }zen\IeC {\'y} od sn\IeC {\'\i }mku 01:1300 ve virtu\IeC {\'a}ln\IeC {\'\i } realit\IeC {\v e}, pohled 1}}{75}{Model pořízený od snímku 01:1300 ve virtuální realitě, pohled 1}{figure.E.4}{}}
\@writefile{lof}{\contentsline {figure}{\numberline {E.5}{\ignorespaces Model po\IeC {\v r}\IeC {\'\i }zen\IeC {\'y} od sn\IeC {\'\i }mku 01:1300 ve virtu\IeC {\'a}ln\IeC {\'\i } realit\IeC {\v e}, pohled 2}}{75}{figure.E.5}\protected@file@percent }
\newlabel{A:G:VR5}{{\M@TitleReference {E.5}{Model po\IeC {\v r}\IeC {\'\i }zen\IeC {\'y} od sn\IeC {\'\i }mku 01:1300 ve virtu\IeC {\'a}ln\IeC {\'\i } realit\IeC {\v e}, pohled 2}}{75}{Model pořízený od snímku 01:1300 ve virtuální realitě, pohled 2}{figure.E.5}{}}
\@writefile{lof}{\contentsline {figure}{\numberline {E.6}{\ignorespaces Pr\IeC {\r u}b\IeC {\v e}h po\IeC {\v r}\IeC {\'\i }zen\IeC {\'\i } sn\IeC {\'\i }mk\IeC {\r u} z~virtu\IeC {\'a}ln\IeC {\'\i } reality a validace korektn\IeC {\'\i }ho exportu}}{75}{figure.E.6}\protected@file@percent }
\newlabel{A:G:VR6}{{\M@TitleReference {E.6}{Pr\IeC {\r u}b\IeC {\v e}h po\IeC {\v r}\IeC {\'\i }zen\IeC {\'\i } sn\IeC {\'\i }mk\IeC {\r u} z~virtu\IeC {\'a}ln\IeC {\'\i } reality a validace korektn\IeC {\'\i }ho exportu}}{75}{Průběh pořízení snímků z~virtuální reality a validace korektního exportu}{figure.E.6}{}}
\@writefile{lof}{\addvspace {10pt}}
\@writefile{lot}{\addvspace {10pt}}
\@writefile{toc}{\contentsline {appendix}{\chapternumberline {F}Obsah p\IeC {\v r}ilo\IeC {\v z}en\IeC {\'e}ho m\IeC {\'e}dia}{77}{appendix.F}\protected@file@percent }
\newlabel{tab:was:used:in:doc}{{\M@TitleReference {F}{Obsah p\IeC {\v r}ilo\IeC {\v z}en\IeC {\'e}ho m\IeC {\'e}dia}}{77}{Obsah přiloženého média}{appendix.F}{}}
\memsetcounter{lastsheet}{94}
\memsetcounter{lastpage}{78}
