Iteration;Relative energy - Lvl3;Relative energy - Lvl2;Relative energy - Lvl1;Relative energy - Lvl0
0;20.2137812400351;7.50947498785397;4.13442810481648;2.14039686759848
1;15.9995164167736;7.30561688818712;4.13442810481648;1.69298033777889
2;15.9995164167736;7.30561688818712;4.13442810481648;1.57014610825907
3;15.9995164167736;7.30561688818712;4.13442810481648;1.47017449344852
4;15.9995164167736;7.30561688818712;4.13442810481648;1.39390877204599
5;15.4787624278384;7.30561688818712;3.97467407034929;1.36438414249439
6;15.4787624278384;7.30561688818712;3.97467407034929;1.36438414249439
7;15.4787624278384;7.30561688818712;3.97467407034929;1.36438414249439
8;15.4787624278384;6.92700439182159;3.97467407034929;1.36438414249439
9;15.4787624278384;6.45047135055478;3.84216848999215;1.36438414249439
10;15.4787624278384;6.45047135055478;3.80636804601648;1.35412982596909
11;15.4787624278384;6.45047135055478;3.80636804601648;1.34338804874439
12;15.4787624278384;6.45047135055478;3.80636804601648;1.34338804874439
13;15.4787624278384;6.45047135055478;3.80636804601648;1.34338804874439
14;15.4787624278384;6.45047135055478;3.79999215193847;1.34338804874439
15;14.4670693172771;6.45047135055478;3.79999215193847;1.34338804874439
16;14.4670693172771;6.45047135055478;3.79999215193847;1.34336468134659
17;13.8160884153638;6.45047135055478;3.79186297039319;1.34335372787886
18;13.8160884153638;6.45047135055478;3.68348491945927;1.34335372787886
19;13.6455015764687;;3.68348491945927;1.34335372787886
20;13.5544303448137;;3.68348491945927;1.34335372787886
21;13.5544303448137;;3.68348491945927;1.34335372787886
22;13.5544303448137;;3.52115312892588;1.34332349183597
23;13.5544303448137;;3.52115312892588;1.34332349183597
24;13.1131231936416;;3.52115312892588;1.34328052454662
25;13.1131231936416;;3.50335487321401;1.34328052454662
26;13.1131231936416;;3.50335487321401;1.34328052454662
27;13.1131231936416;;3.46078478273669;1.34328052454662
28;13.1131231936416;;3.46078478273669;1.34328052454662
29;13.1131231936416;;3.46078478273669;1.34328052454662
30;13.1131231936416;;3.42802368144908;1.33899984616463
31;13.1064321411368;;3.42802368144908;1.30630114689798
32;12.8385207463046;;3.42802368144908;1.30630114689798
33;12.8385207463046;;3.381707373882;1.30630114689798
34;12.4817028328498;;3.19144762976695;1.30630114689798
35;12.4817028328498;;3.19144762976695;1.30627948067275
36;12.2925168701799;;3.19144762976695;1.26567587911317
37;12.2925168701799;;3.19144762976695;1.26567587911317
38;12.2925168701799;;3.19144762976695;1.26567587911317
39;12.2925168701799;;3.19144762976695;1.26567587911317
40;12.2925168701799;;3.19144762976695;1.26567587911317
41;12.2925168701799;;3.19144762976695;1.22835554276521
42;12.2925168701799;;3.19144762976695;1.22835554276521
43;12.2925168701799;;3.19144762976695;1.22835554276521
44;12.2925168701799;;;1.22835554276521
45;12.2925168701799;;;1.22835554276521
46;;;;1.18585243120481
47;;;;1.18585243120481
48;;;;1.18585243120481
49;;;;1.18585243120481
